Event_id,Date,Year,Description,Location,Source,Source_URL,Data_set,Del_Grande_ID,Dead_and_missing,crossing_to,crossing_from,death-in,lng,lat,route,Cause_of_death,Organization,Means_of_death
2676,2013-07-27T00:00:00Z,2013,"Found two more bodies in the waters of Kos after the wreck yesterday. It is of two children, one of five years and the other eight (Jul 27, 2013)",kos,Ekathimerini,http://www.ekathimerini.com/4dcgi/_w_articles_wsite1_1_27/07/2013_511538,Del grande,1623,2,,,Greece,27.102943,36.799851,Eastern Mediteranean route Sea,Drowned,,
2677,2013-07-26T00:00:00Z,2013,"Shipwreck off the island of Kos, only one survivor. Found the lifeless bodies of a little girl, 2 women and a man. 8 other passengers still missing (Jul 26, 2013)",kos,Ekathimerini,http://www.ekathimerini.com/4dcgi/_w_articles_wsite1_1_26/07/2013_511396,Del grande,1622,10,,,Greece,27.102943,36.799851,Eastern Mediteranean route Sea,Drowned,,
2678,2013-07-25T00:00:00Z,2013,"Shipwreck in the waters of the island of Oinusses, a man lost at sea (Jul 25, 2013)",oinusses,Ekathimerini,http://www.ekathimerini.com/4dcgi/_w_articles_wsite1_1_25/07/2013_511115,Del grande,1621,1,,,Greece,26.220492,38.515435,Eastern Mediteranean route Sea,Drowned,,
2681,2013-05-15T00:00:00Z,2013,"Shipwreck off the coast of the island Farmakonisi, dies drowned a six year old girl (May 15, 2013)",farmakonisi,Ekathimerini,http://www.ekathimerini.com/4dcgi/_w_articles_wsite1_1_15/05/2013_499041,Del grande,1618,1,,,Greece,27.088338,37.282956,Eastern Mediteranean route Sea,Drowned,,
2686,2013-01-22T00:00:00Z,2013,"Found on the banks of the Evros River at the border between Turkey and Greece, the lifeless body of a sixteen year old frozen to death trying to cross the border (Jan 22, 2013)",evros,Ekathimerini,http://www.ekathimerini.com/4dcgi/_w_articles_wsite1_1_22/01/2013_479643,Del grande,1613,1,Greece,Turkey,Greece,26.135943,41.244376,Eastern Mediteranean route Land,Drowned,,
2687,2013-01-14T00:00:00Z,2013,"The bodies of three castaways fished in the waters of the island of Chios (Jan 14, 2013)",chios,Ekathimerini,http://www.ekathimerini.com/4dcgi/_w_articles_wsite1_1_14/01/2013_478257,Del grande,1612,3,,,Greece,26.136346,38.370981,Eastern Mediteranean route Sea,Drowned,,
2688,2012-12-15T00:00:00Z,2012,"Shipwreck in the waters of the island of Lesvos, Eastern Aegean, 20 people die, 7 others were scattered at sea (Dec 15, 2012)",lesvos,Ekathimerini,http://www.repubblica.it/esteri/2012/12/15/news/grecia_naufraga_barcone_di_migranti_sedici_morti_e_undici_dispersi-48800854/?ref=search,Del grande,1611,27,,,Greece,26.372171,39.16408,Eastern Mediteranean route Sea,Drowned,,
2062,2012-12-02T23:00:00Z,2012,"rolled over by the truck he tried to hide under to leave Greece, near the new port in Patras (Dec 2, 2012)",patras,PICUM/patrasT,,United,,1,Greece,Greece,,21.734574,38.24664,,,Self organised,Motor vehicle
1736,2012-11-30T23:00:00Z,2012,"missing after 2 plastic boats trying to cross the border GR-TR via the Evros River overturned (Nov 30, 2012)",evros,PICUM/ClandestinE/Infomob/TK/MNS,,United,,12,Greece,Turkey,,26.135943,41.244376,Eastern Mediteranean route Land,,Self organised,Boat
485,2012-10-01T22:00:00Z,2012,"died of hypothermia while trying to cross Evros River to enter GR, body found near Tichero (Oct 1, 2012)",evros,PICUM/Rizo,,United,,1,Greece,Turkey,,26.135943,41.244376,Eastern Mediteranean route Land,Frozen,Other,Other
170,2012-09-15T22:00:00Z,2012,"car accident near Alexandroupolis(GR),car driven by smuggler overturned during police chase (Sep 15, 2012)",alexandroupolis,PICUM,,United,,1,,,Greece,25.873962,40.845719,,Car accident,,
131,2012-08-17T22:00:00Z,2012,"body found in Evros River (TR) reportedly was migrant trying to cross into GR from Turkey (Aug 17, 2012). From Del Grande's data set (translated): Found a dead body in the waters of the Evros River at the border between Turkey and Greece (Aug 18, 2012)",evros,FE,http://fortresseurope.blogspot.com/2012/08/grecia-crollano-gli-arrivi-un-morto.html,United,1590,1,Greece,Turkey,,26.135943,41.244376,Eastern Mediteranean route Land,Drowned,Other,"Walking, swimming"
474,2012-07-01T22:00:00Z,2012,"died of hypothermia in Health Centre of Soufli after crossing Evros River to enter Greece (Jul 1, 2012)",evros,PICUM/Skai,,United,,1,Greece,Turkey,,26.135943,41.244376,Eastern Mediteranean route Land,Frozen,Other,Other
351,2012-04-28T22:00:00Z,2012,"died in car accident while trying to escape a FRONTEX control (Apr 28, 2012). From Del Grande's data set (translated): Tracking the border with Turkey, Lykofos. A car fleeing Frontex patrols loses control and crashes. The accident killed 3 people who were attempting to cross the border (Apr 29, 2012)",lykofos,Migreurop/KTG/TF1/PICUM/Clandestina/Age/Skai/Ta Nea/ERT,http://fortresseurope.blogspot.co.uk/2012/04/grecia-in-fuga-da-pattuglie-frontex-3.html,United,1578,2,Greece,Turkey,,26.288073,41.119673,Eastern Mediteranean route Land,Car accident,Trafficking,Motor vehicle
125,2012-03-28T22:00:00Z,2012,"body found in an advanced state of decay in the rural area of Tichero, Evros Prefecture (GR) (Mar 28, 2012)",evros,PICUM/Age/Clandestina,,United,,1,,,Greece,26.135943,41.244376,Eastern Mediteranean route Land,,,
1414,2012-03-16T23:00:00Z,2012,"drowned while trying to cross Evros River to enter GR, body found in area of Nea Vissa (Mar 16, 2012)",evros,PICUM/Age,,United,,1,Greece,Turkey,,26.135943,41.244376,Eastern Mediteranean route Land,Drowned,Other,Other
1415,2012-03-14T23:00:00Z,2012,"drowned while trying to cross Evros River to enter GR, body found near river in area of Soufli (Mar 14, 2012)",evros,PICUM,,United,,1,Greece,Turkey,,26.135943,41.244376,Eastern Mediteranean route Land,Drowned,Other,Other
2650,2012-02-29T23:00:00Z,2012,"undocumented migrant found in container which he used as shelter close to Thiva (GR) (Feb 29, 2012)",thiva,PICUM,,United,,1,,,Greece,23.320431,38.322579,Eastern Mediteranean route Sea,,,
465,2012-02-28T23:00:00Z,2012,"died of hypothermia, body found in a warehouse in the area of Korinthia (GR) (Feb 28, 2012)",korinthia,PICUM/Proto,,United,,1,Greece,Greece,,22.524509,38.002298,Eastern Mediteranean route Sea,Frozen,Other,Other
2665,2012-02-28T23:00:00Z,2012,"young girl and her grandfather missing after boat overturned while crossing Evros River (GR) (Feb 28, 2012)",evros,PICUM/Infomob/Ta Nea/Skai,,United,,2,Greece,Turkey,,26.135943,41.244376,Eastern Mediteranean route Land,,Other,Boat
110,2012-02-20T23:00:00Z,2012,"body found by border guards in the Evros River (GR) (Feb 20, 2012)",evros,MNS,,United,,1,Greece,Turkey,,26.135943,41.244376,Eastern Mediteranean route Land,,Other,Other
486,2012-02-20T23:00:00Z,2012,"died of hypothermia while trying to leave TR via Evros River, body found near Orestiada (GR) (Feb 20, 2012)",evros,PICUM/Infomob/Skai/Clandestina,,United,,1,Greece,Turkey,,26.135943,41.244376,Eastern Mediteranean route Land,Frozen,Other,Other
312,2012-01-31T23:00:00Z,2012,"died from smoke inhalation from fire lit in tin can to keep warm inside abandoned truck (GR) (Jan 31, 2012)",Greece,MNS/PICUM,,United,,1,,,Greece,21.824312,39.074208,,Suffocated,,
482,2012-01-29T23:00:00Z,2012,"died of hypothermia trying to cross Evros River (GR) with 14 migrants who were rescued (Jan 29, 2012). From Del Grande's data set (translated): One dead and six missing in the waters of the Evros River at the border between Turkey and Greece (Jan 30, 2012)",evros,PICUM/Clandestina/Skai/ToV,http://fortresseurope.blogspot.com/2012/01/grecia-un-morto-e-6-dispersi-sul.html,United,1569,1,Greece,Turkey,,26.135943,41.244376,Eastern Mediteranean route Land,Frozen,Other,Other
2704,2012-01-28T00:00:00Z,2012,"Were hidden in a truck headed to the place of embarkation for the Italian coast, while 5 have died in a road accident (Jan 28, 2012)",italian coast,AFP,http://fortresseurope.blogspot.com/2012/01/grecia-5-morti-sulla-rotta-per-litalia.html,Del grande,1567,5,Italy,Greece,Greece,9.234647,44.348399,,,,
2709,2012-01-04T00:00:00Z,2012,"He died of asphyxiation a young Afghan hidden inside a truck in Patras, the port of embarkation of trucks traveling to Italy (Jan 4, 2012)",patras,Kathimerini,http://fortresseurope.blogspot.com/2011/01/nel-camion-si-erano-nascosti-in-tre-per.html,Del grande,1560,1,Italy,Greece,Greece,21.734574,38.24664,,Suffocated,,
483,2011-12-31T23:00:00Z,2011,"died of hypothermia trying to cross the river Evros between GR and TR, part of group of 15 (Dec 31, 2011)",evros,CMau/KI,,United,,1,Greece,Turkey,,26.135943,41.244376,Eastern Mediteranean route Land,Frozen,Other,"Walking, swimming"
1776,2011-12-31T23:00:00Z,2011,"missing after they tried to cross the river Evros between GR and TR, part of a group of 15 (Dec 31, 2011)",evros,CMau/KI,,United,,2,Greece,Turkey,,26.135943,41.244376,Eastern Mediteranean route Land,,Other,"Walking, swimming"
463,2011-12-26T23:00:00Z,2011,"died of hypothermia, body found by the police along the shores of the Evros River (GR) (Dec 26, 2011)",evros,MNS/PICUM,,United,,3,Greece,Turkey,,26.135943,41.244376,Eastern Mediteranean route Land,Frozen,Other,Other
464,2011-11-23T23:00:00Z,2011,"died of hypothermia, body found in a farming area in Thymaria, Alexandroupoli (GR) (Nov 23, 2011)",alexandroupoli,MNS,,United,,1,Greece,Turkey,,25.873962,40.845719,Eastern Mediteranean route Sea,Frozen,Other,Other
466,2011-11-23T23:00:00Z,2011,"died of hypothermia, body found in the Peplos region, on banks of Evros River (GR) (Nov 23, 2011)",evros,MNS,,United,,1,Greece,Turkey,,26.135943,41.244376,Eastern Mediteranean route Land,Frozen,Other,Other
324,2011-11-09T23:00:00Z,2011,"died in accident, smugglers  car overturned as they tried to avoid a police road block (Nov 9, 2011)",Greece,MNS,,United,,2,,,Greece,21.824312,39.074208,,Car accident,,
2721,2011-10-12T00:00:00Z,2011,"Found the bodies of two boys drowned trying to swim across the Evros River at the border between Turkey and Greece (Oct 12, 2011)",evros,Kathimerini,http://fortresseurope.blogspot.com/2011/10/grecia-2-morti-annegati-sul-fiume-evros.html,Del grande,1542,2,Greece,Turkey,Greece,26.135943,41.244376,Eastern Mediteranean route Land,Drowned,,
89,2011-10-11T22:00:00Z,2011,"bodies found in the area of Petalo (GR), tried to cross the border TR-GR via the Evros River (Oct 11, 2011). From Del Grande's data set (translated): Sixteen falls into the water and drowned during a chase between a Greek patrol boat and the boat was traveling with other passengers along the Evros River at the border between Turkey and Greece (Dec 9, 2011)",evros,MNS/PICUM,http://fortresseurope.blogspot.com/2011/12/muore-16enne-in-un-inseguimento-di.html,United,1556,2,Greece,Turkey,,26.135943,41.244376,Eastern Mediteranean route Land,,Other,Other
2722,2011-09-23T00:00:00Z,2011,"Shipwreck in the Ionian Sea on the route for Calabria, off the island of Zakynthos, 3 dead (Sep 23, 2011)",calabria,Clandestina,http://fortresseurope.blogspot.com/2011/09/ancora-una-strage-su-una-delle-rotte.html,Del grande,1541,3,,,Greece,16.346379,39.308771,Apulia & Calbria,Drowned,,
2723,2011-09-21T00:00:00Z,2011,"The lifeless bodies of four men have surfaced from the sea along the coast of Izmir, Seferihisar, on the route to the Greek island of Samos. The number of missing unknown shipwreck (Sep 21, 2011)",samos,Today Zaman,http://fortresseurope.blogspot.com/2011/09/turchia-naufragio-sulla-rotta-per-samos.html,Del grande,1540,4,Greece,Turkey,Turkey,26.820351,37.743215,Eastern Mediteranean route Sea,Drowned,,
2728,2011-09-03T00:00:00Z,2011,"4 dead, 15 missing in a shipwreck in the Ionian Sea on the route for Calabria, off the island of Kefalonia (Sep 3, 2011)",calabria,Clandestina,http://fortresseurope.blogspot.com/2011/09/ionio-4-morti-e-15-dispersi-al-largo-di.html,Del grande,1535,19,,,Greece,16.346379,39.308771,Apulia & Calbria,Drowned,,
1787,2011-08-23T22:00:00Z,2011,"murdered, shot by Frontex officer while shooting at boats crossing TR-GR border,  Evros river (Aug 23, 2011)",evros,ClandestinE/Son Dakika/MNS,,United,,1,Greece,Turkey,,26.135943,41.244376,Eastern Mediteranean route Land,,Other,Boat
1569,2011-07-31T22:00:00Z,2011,"froze to death, body found in Nea Vissa, Evros (GR) near to Turkish border (Jul 31, 2011)",evros,ClandestinE/Frontexplode,,United,,1,Greece,Turkey,,26.135943,41.244376,Eastern Mediteranean route Land,Frozen,Other,"Walking, swimming"
399,2011-07-09T22:00:00Z,2011,"died instantly after being run over by train near Feres (GR) while walking along the railway (Jul 9, 2011)",feres,MNS,,United,,2,,,Greece,26.172202,40.894241,,,,
2050,2011-06-11T22:00:00Z,2011,"reportedly smugglers tortured and then shot him, found outside Thriassio Hospital,Attik (GR) (Jun 11, 2011)","Thriassio Hospital, Attik, greece",MNS,,United,,1,,,Greece,23.541755,38.041285,Eastern Mediteranean route Sea,,,
602,2011-06-02T22:00:00Z,2011,"drowned, 3 found, 15 missing, jumped off LY-GR ship in Souda (GR) during repatriation (Jun 2, 2011). From Del Grande's data set (translated): Found in Crete, the bodies of 13 of Bangladeshis reported missing after being thrown overboard from the ship that they had been evacuated en masse from Libya to avoid deportation (Mar 16, 2011)",crete,KI/MNS,http://fortresseurope.blogspot.com/2011/03/grecia-ritrovati-i-corpi-senza-vita-dei.html,United,1479,18,Greece,Lybia,,24.809269,35.240117,Eastern Mediteranean route Sea,Drowned,Other,Boat
739,2011-05-31T22:00:00Z,2011,"drowned, bodies found in Evros River trying to cross GR-TR border (May 31, 2011). From Del Grande's data set (translated): Found the bodies of two men drowned trying to cross the Evros River, which marks the border between Turkey and Greece (Jan 7, 2011)",evros,FE/AFP,http://fortresseurope.blogspot.com/2011/01/grece-deux-migrants-meurent-noyes-la.html,United,1455,2,Greece,Turkey,,26.135943,41.244376,Eastern Mediteranean route Land,Drowned,Other,Other
2746,2011-05-19T00:00:00Z,2011,"Shipwreck in Preveza, on the route to Italy. Rescued at sea two corpses, including that of a child of eight years. Lost at sea another child (May 19, 2011)",preveza,Kathimerini,http://fortresseurope.blogspot.com/2011/05/grecia-naufragio-sulla-rotta-per.html,Del grande,1505,3,,,Greece,20.751716,38.959265,,Drowned,,
888,2011-03-21T23:00:00Z,2011,"drowned, found off Crete s island jumped off LY-GR ship in Souda (GR) during repatriation (Mar 21, 2011)",crete,MNS,,United,,1,Greece,Lybia,,24.809269,35.240117,Eastern Mediteranean route Sea,Drowned,Other,Boat
919,2011-03-17T23:00:00Z,2011,"drowned, patrols found bodies in Petalo area of river Evros (GR) (Mar 17, 2011)",evros,clandestinE,,United,,3,Greece,Turkey,,26.135943,41.244376,Eastern Mediteranean route Land,Drowned,Other,Other
2765,2011-03-05T00:00:00Z,2011,"During the landing of the ferry greek Ionian King at the port of Souda, Crete load of 1,200 foreigners were evacuated from Benghazi, fleeing Libya in revolt, a group of 46 Bangladeshis fear of being expelled from Greece throws herself into the sea to escape groped . 3 of them drowned, while 16 others are reported missing (Mar 5, 2011)",crete,Kathimerini,http://fortresseurope.blogspot.com/2011/03/grecia-3-morti-e-16-dispersi-tra-i.html,Del grande,1473,19,,,Greece,24.809269,35.240117,Eastern Mediteranean route Sea,Drowned,,
1611,2011-01-11T23:00:00Z,2011,"killed after a car chase in Evros (GR), involving Greek border police and FRONTEX officials (Jan 11, 2011)",evros,MNS/PICUM,,United,,1,Greece,Turkey,,26.135943,41.244376,Eastern Mediteranean route Land,Car accident,Trafficking,Motor vehicle
1557,2010-12-19T23:00:00Z,2010,"frozen to death, found in Nea Vissa (GR), crossing TR-GR border (Dec 19, 2010)",vissa,Frontexplode/MNS,,United,,1,Greece,Turkey,,21.506965,48.217686,Eastern Land borders route,Frozen,Self organised,"Walking, swimming"
1568,2010-12-16T23:00:00Z,2010,"froze to death, bodies found in Nea Vissa (GR), near Turkish border (Dec 16, 2010). From Del Grande's data set (translated): Found the bodies of two men frozen to death while attempting to walk across the border between Turkey and Greece, near Nea Vissa, Orestiada (Dec 17, 2010)",vissa,Frontexplode/MNS,http://fortresseurope.blogspot.com/2010/12/greece-two-immigrants-froze-to-death-in.html,United,1453,2,Greece,Turkey,,21.506965,48.217686,Eastern Land borders route,Frozen,Other,"Walking, swimming"
2775,2010-12-02T00:00:00Z,2010,"Sardar Ayari, Afghanistan, 25 years and father of three, died crushed between two trucks while trying to hide in a truck near the port of Patras to embark secretly to Italy (Dec 2, 2010)",patras,Migreurop,http://fortresseurope.blogspot.com/2010/12/patrasso-schiacciato-tra-due-camion.html,Del grande,1450,1,Italy,Greece,Greece,21.734574,38.24664,,,,
1918,2010-11-01T23:00:00Z,2010,"reportedly drowned, dinghy capsized off coast of Samos (GR) on the way to (GR) from (TR) (Nov 1, 2010). From Del Grande's data set (translated): Shipwreck in Samos, 8 recovered bodies from the sea, looking for others 6 missing (Feb 11, 2010)",samos,KI/FE/AP/Migreurop/ECRE,http://fortresseurope.blogspot.com/2010/02/grece-huit-clandestins-se-noient-en-mer.html,United,1407,8,Greece,Turkey,,26.820351,37.743215,Eastern Mediteranean route Sea,Drowned,Other,Boat
2782,2010-10-14T00:00:00Z,2010,"Attacked near the port of Samos, loses his life a boy who emigrated 23 years (Oct 14, 2010)",samos,Kathimerini,http://fortresseurope.blogspot.com/2010/10/migrant-death-in-samos.html,Del grande,1439,1,,,Greece,26.820351,37.743215,Eastern Mediteranean route Sea,,,
980,2010-09-30T22:00:00Z,2010,"drowned, suspected that boat capsized 6 days earlier, travelling from Turkey to Greece (Sep 30, 2010)",evros,Zaman/NOB,,United,,2,Greece,Turkey,,26.135943,41.244376,Eastern Mediteranean route Land,Drowned,Other,Boat
1426,2010-08-05T22:00:00Z,2010,"drowned whilst travelling from Turkey to Greece on Evros River (GR) (Aug 5, 2010). From Del Grande's data set (translated): Found the lifeless body of a man drowned in the Evros River at the border between Turkey and Greece (Jun 9, 2010)",evros,MNS,http://fortresseurope.blogspot.com/2010/06/dead-migrants-found-in-river-evros.html,United,1417,4,Greece,Turkey,,26.135943,41.244376,Eastern Mediteranean route Land,Drowned,Other,Boat
742,2010-07-11T22:00:00Z,2010,"drowned, bodies found in the Evros region (GR) near to border with Turkey (Jul 11, 2010)",evros,ClandestinE/Frontexplode,,United,,2,Greece,Turkey,,26.135943,41.244376,Eastern Mediteranean route Land,Drowned,Other,"Walking, swimming"
2793,2010-07-07T00:00:00Z,2010,"Found two more bodies in the Evros River at the border with Turkey. Rises to 18 The death toll of the tragedy of July 1 (Jul 7, 2010)",evros,Ekathimerini,http://fortresseurope.blogspot.com/2010/07/greece-migrants-deaths-in-evros.html,Del grande,1420,2,Greece,Turkey,Greece,26.135943,41.244376,Eastern Mediteranean route Land,Drowned,,
2794,2010-07-01T00:00:00Z,2010,"Massacre in the Evros River at the border between Turkey and Greece. Found 16 dead bodies, including five women, drowned trying to swim across the river (Jul 1, 2010)",evros,Hurriet,http://fortresseurope.blogspot.com/2010/07/16-migrants-drown-trying-to-reach.html,Del grande,1419,18,Greece,Turkey,Greece,26.135943,41.244376,Eastern Mediteranean route Land,Drowned,,
713,2010-06-24T22:00:00Z,2010,"drowned, boat overturned crossing Evros river from TR-GR, bodies found in Orestiada (GR) (Jun 24, 2010)",evros,TimesM/Migreurop/AFP,,United,,2,Greece,Turkey,,26.135943,41.244376,Eastern Mediteranean route Land,Drowned,Other,Boat
2796,2010-05-26T00:00:00Z,2010,"Found the bodies of two men drowned in the Evros River at the border between Turkey and Greece (May 26, 2010)",evros,Ekathimerini,http://fortresseurope.blogspot.com/2010/06/dead-migrants-found-in-river-evros.html,Del grande,1416,2,Greece,Turkey,Greece,26.135943,41.244376,Eastern Mediteranean route Land,Shot,,
735,2010-04-17T22:00:00Z,2010,"drowned, bodies found by Evros river near Edirne (TR) when boat capsized, 7 survivors (Apr 17, 2010)",evros,PICUM/UNHCR,,United,,4,Greece,Turkey,,26.135943,41.244376,Eastern Mediteranean route Land,Drowned,Other,Boat
706,2010-03-31T22:00:00Z,2010,"drowned, boat capsized when travelling from Turkey to Greece (Mar 31, 2010). From Del Grande's data set (translated): Shipwreck in Alexandroupoli. Recovered four dead bodies, two neighbors at the port and two in the Rhodope. We are looking for other missing (Jan 4, 2010)",alexandroupoli,Zaman/NOB,http://fortresseurope.blogspot.com/2010/01/greece-four-migrants-drown-at-sea.html,United,1403,19,Greece,Turkey,,25.873962,40.845719,Eastern Mediteranean route Sea,Drowned,Other,Boat
47,2010-03-27T23:00:00Z,2010,"asylum seeker, killed by bomb exposion in Athens (GR) while searching for food into garbage  (Mar 27, 2010)",athens,IRR/MNS,,United,,1,,,Greece,23.72931,37.983716,Eastern Mediteranean route Sea,,,
712,2010-01-05T23:00:00Z,2010,"drowned, boat overturned crossing Evros river (TR) trying to get to Greece (Jan 5, 2010)",evros,TimesM/Migreurop,,United,,5,Greece,Turkey,,26.135943,41.244376,Eastern Mediteranean route Land,Drowned,Other,Boat
714,2010-01-05T23:00:00Z,2010,"drowned, boat overturned crossing Evros river from TR-GR, bodies found in Orestiada (GR) (Jan 5, 2010)",evros,TimesM/Migreurop/AFP,,United,,8,Greece,Turkey,,26.135943,41.244376,Eastern Mediteranean route Land,Drowned,Other,Boat
1731,2010-01-05T23:00:00Z,2010,"missing, suspected drowned, boat overturned when crossing Evros river from TR-GR (Jan 5, 2010)",evros,TimesM/Migreurop/AFP,,United,,3,Greece,Turkey,,26.135943,41.244376,Eastern Mediteranean route Land,Drowned,Other,Boat
217,2010-01-04T23:00:00Z,2010,"deported from NL without family, died while trying to reenter Europe via boat to Samos (GR) (Jan 4, 2010)",samos,VK,,United,,1,Greece,Africa,,26.820351,37.743215,Eastern Mediteranean route Sea,Drowned,Self organised,Boat
2023,2009-12-30T23:00:00Z,2009,"reportedly drowned on way from Turkey, boat shipwrecked off Alexandroupoli coast (GR) (Dec 30, 2009)",alexandroupoli,FE/Migreurop/AP/Le Figaro/CDS/ANSA/Unita /TodZam,,United,,22,Greece,Turkey,,25.873962,40.845719,Eastern Mediteranean route Sea,Drowned,Other,Boat
1904,2009-12-11T23:00:00Z,2009,"reportedly drowned, boat sank off coast of Leros Island (GR), 25 rescued from rocky islet (Dec 11, 2009). From Del Grande's data set (translated): Shipwreck off the island of Leros. Recovered a dead body, a woman lost at sea (Dec 11, 2009)",leros,NOB/TodZam,http://fortresseurope.blogspot.com/2009/12/grecia-un-morto-e-un-disperso-in-un.html,United,1398,2,Greece,Greece,,26.848843,37.140914,Eastern Mediteranean route Sea,Drowned,Other,Boat
588,2009-12-07T23:00:00Z,2009,"drowned, 2 died, motorboat sank off the coast of Kos Island (GR) on the way from TR (Dec 7, 2009)",kos,FE/Picum/Cesdop/NOB,,United,,2,Greece,Turkey,,27.102943,36.799851,Eastern Mediteranean route Sea,Drowned,Trafficking,Boat
243,2009-11-02T00:00:00Z,2009,"Found a dead body on the island of Lesvos. It would be the ninth victim of the sinking of October 27 (Nov 2, 2009)",lesvos,Ansa,http://fortresseurope.blogspot.com/2009/11/death-toll-in-migrant-sea-tragedy-hits.html,Del grande,1391,1,,,Greece,26.372171,39.16408,Eastern Mediteranean route Sea,,,
246,2009-10-27T00:00:00Z,2009,"Shipwreck in the waters of Lesvos. Drown 3 women and 5 Afghan children (Oct 27, 2009)",lesvos,AP,http://fortresseurope.blogspot.com/2009/10/8-afghan-immigrants-drown-as-boat-sinks.html,Del grande,1388,8,,,Greece,26.372171,39.16408,Eastern Mediteranean route Sea,,,
1162,2009-10-26T23:00:00Z,2009,"drowned after wooden boat from TR collided with rocks on the island of Mytilini (GR) (Oct 26, 2009)",mytilini,LR/TDN/Le Figaro/CDS/Migreurop/ANSA/gara.net/Picum/NOB,,United,,9,Greece,Turkey,,26.557275,39.106738,Eastern Mediteranean route Sea,Drowned,Trafficking,Boat
1782,2009-10-09T22:00:00Z,2009,"murdered, beaten, dragged in police station of Nikaia (GR) and tortured till death (Oct 9, 2009)","Nikaia, greece",Anarkismo/IRR,,United,,1,,,Greece,23.642364,37.970112,Eastern Mediteranean route Sea,,,
260,2009-08-13T00:00:00Z,2009,"Recovered two dead bodies in the waters of the island of Kos, victims of a shipwreck. Another three people are reported missing (Aug 13, 2009)",kos,Kathimerini,http://fortresseurope.blogspot.com/2009/08/greece-two-drown-in-migrant-boat.html,Del grande,1374,,,,Greece,27.102943,36.799851,Eastern Mediteranean route Sea,,,
264,2009-08-07T00:00:00Z,2009,"A dead near the port of Igoumenitsa. It was hidden in a truck, thinking that he was going to Italy, but when he realized he was heading to Athens threw himself losing his life in the fall (Aug 7, 2009)",igoumenitsa,Kathimerini,http://fortresseurope.blogspot.com/2009/08/body-found-at-igoumenitsa-port.html,Del grande,1370,1,,,Greece,20.265534,39.50615,,,,
267,2009-07-27T00:00:00Z,2009,"Beaten by the police in the Greek port of Igoumenitsa, while trying to get on a truck ready to embark for Italy, a young Kurdish died at the hospital in Thessaloniki after four months in a coma (Jul 27, 2009)",igoumenitsa,Reuters,http://fortresseurope.blogspot.com/2006/01/pestato-sangue-dalla-polizia-greca-come.html,Del grande,1367,1,,,Greece,20.265534,39.50615,,,,
611,2009-06-10T22:00:00Z,2009,"drowned, 5 died, 1 missing, overloaded boat sank off the coast of Bodrum (TR) (Jun 10, 2009)",Bodrum,FE/Ansa/Le Monde/NOB,,United,,6,Greece,Turkey,,27.43029,37.035339,Eastern Mediteranean route Sea,Drowned,Other,Boat
1533,2009-03-22T23:00:00Z,2009,"found in Votanikos stream near Aliens Bureau in Athens (GR), stayed in coma for 3 months (Mar 22, 2009)",votanikos,NR/IRR,,United,,1,,,Greece,23.696198,37.982394,Eastern Mediteranean route Sea,,,
1676,2009-02-28T23:00:00Z,2009,"manner of death unknown, body found in a ditch in Votanikos (GR), near the Aliens Bureau (Feb 28, 2009)",votanikos,KI/IRR/MNS,,United,,1,,,Greece,23.696198,37.982394,Eastern Mediteranean route Sea,,,
1354,2009-01-12T23:00:00Z,2009,"drowned off Syros Island (GR), after boat carrying 19 migrants capsized  (Jan 12, 2009). From Del Grande's data set (translated): Boat capsizes at sea off the island of Syros. A child dies 18 months (Jan 13, 2009)",syros,FE/KI/NOB,http://www.ekathimerini.com/4dcgi/_w_articles_politics_2_14/01/2009_103779,United,1321,1,Greece,Greece,,24.916088,37.423411,Eastern Mediteranean route Sea,Drowned,Trafficking,Boat
887,2009-01-11T23:00:00Z,2009,"drowned, found off Alexandroupoli (GR) when boat shipwrecked  (Jan 11, 2009)",alexandroupoli,KI,,United,,1,Greece,Greece,,25.873962,40.845719,Eastern Mediteranean route Sea,Drowned,Other,Boat
605,2008-12-17T23:00:00Z,2008,"drowned, 3 found, 4 missing, dinghy sank due to bad weather in Aegean Sea on way to GR (Dec 17, 2008). From Del Grande's data set (translated): Shipwreck in the waters of Ayvacik, on the route to Mytilini. Found 3 dead, 4 missing (Dec 21, 2008)",ayvacik,PICUM/AFP/ANSA/NOB,http://www.ekathimerini.com/4dcgi/_w_articles_world_2_22/12/2008_103228,United,1316,7,Greece,Africa,,26.40086,39.599541,Eastern Mediteranean route Sea,Drowned,Other,Boat
322,2008-12-06T00:00:00Z,2008,"Sinking a boat load of migrants off the island of Samos. Drowned a 4 year old girl (Dec 6, 2008)",samos,Earth Times,http://www.earthtimes.org/articles/show/244958,Del grande,1312,1,,,Greece,26.820351,37.743215,Eastern Mediteranean route Sea,,,
324,2008-11-28T00:00:00Z,2008,"Two immigrants found dead abandoned along a coastal road in southern Greece (Nov 28, 2008)",Greece,Associated Press,http://www.iht.com/articles/ap/2008/11/28/europe/EU-Greece-Migrant-Smugglers.php,Del grande,1310,2,,,Greece,21.824312,39.074208,,,,
87,2008-11-24T23:00:00Z,2008,"bodies found in a refrigerator truck with other 30 hidden people in a southern GR coastline (Nov 24, 2008)",Greece to Greece,FE/IntHeraldTribune/NOB,,United,,2,Greece,Greece,,21.665039,39.077771,Eastern Mediteranean route Land,Frozen,Trafficking,Stowaway
924,2008-10-28T23:00:00Z,2008,"drowned, recovered by Greek border police in eastern Aegean facing the Turkish coast (Oct 28, 2008). From Del Grande's data set (translated): Two victims in the eastern Aegean, off the coast of Turkey (Oct 29, 2008)",aegean,PICUM,http://www.ekathimerini.com/4dcgi/_w_articles_politics_2_30/10/2008_101707,United,1299,2,Greece,Turkey,,25.520736,37.075546,Eastern Mediteranean route Sea,Drowned,Other,Other
1597,2008-10-25T22:00:00Z,2008,"injured in police violence, in asylum seekers queue outside Aliens  directorate in Athens (GR) (Oct 25, 2008)",athens,ECRE/ST/Vluchteling/IRR/MNS,,United,,1,,,Greece,23.72931,37.983716,Eastern Mediteranean route Sea,,,
1233,2008-10-22T22:00:00Z,2008,"drowned in a southern Albanian lagoon close to Greece after overloaded boat capsized (Oct 22, 2008)",albania,FE/Javno/NOB,,United,,3,Greece,Albania,,20.168331,41.153332,,Drowned,Trafficking,Boat
1231,2008-10-19T22:00:00Z,2008,"drowned in a lagoon in Southern AL after boat capsized trying to avoid police checkpoint (Oct 19, 2008)",Albania to Greece,Reu/Picum/Javno/NOB,,United,,2,Greece,Albania,,20.786133,40.261643,Circular route from Greece and Albania,Drowned,Other,Boat
345,2008-10-07T00:00:00Z,2008,"18 corpses found along 25 miles of coastline between Alexandroupolis (Greece) and Saros Bay (Turkey), victims of a single shipwreck (Oct 7, 2008)",alexandroupolis,Usa Today,http://www.usatoday.com/news/world/2008-10-07-greece-bodies_N.htm,Del grande,1289,18,,,Greece,25.873962,40.845719,,,,
35,2008-09-26T22:00:00Z,2008,"accidentally entered a minefield in Kastanea near Evros (GR), on the way to GR from Turkey (Sep 26, 2008)",evros,NOB/KI,,United,,4,Greece,Turkey,,26.135943,41.244376,Eastern Mediteranean route Land,Minefield,Other,"Walking, swimming"
351,2008-09-26T00:00:00Z,2008,"4 migrants killed by landmines in a minefield along the border with Turkey, Kastanjes, in the region of Evros (Sep 26, 2008)",evros,Kathimerini,http://www.ekathimerini.com/4dcgi/_w_articles_politics_2_27/09/2008_100834,Del grande,1283,4,,,Greece,26.135943,41.244376,Eastern Mediteranean route Land,,,
826,2008-06-11T22:00:00Z,2008,"drowned, dinghy sank trying to cross the sea between TR and Samos Island (GR) (Jun 11, 2008)",samos,EarthT/PICUM/NOB,,United,,1,Greece,Turkey,,26.820351,37.743215,Eastern Mediteranean route Sea,Drowned,Other,Boat
851,2008-06-09T22:00:00Z,2008,"drowned, found between Evros River delta and Alexandroupolis port (GR) by fishing boat (Jun 9, 2008)",evros,NOB/KI,,United,,2,Greece,Turkey,,26.135943,41.244376,Eastern Mediteranean route Land,Drowned,Other,Boat
447,2008-05-20T00:00:00Z,2008,"Recovered a dead body in the waters of Samos (May 20, 2008)",samos,Yen,http://www.yen.gr/wide/yen.chtm?prnbr=32714,Del grande,1187,2,,,Greece,26.820351,37.743215,Eastern Mediteranean route Sea,,,
448,2008-05-16T00:00:00Z,2008,"Missing the 21 passengers of a boat at sea by the Coast Guard rejected Samos. According to the only passenger managed to reach the island by swimming, they would all be drowned after the sinking of the boat, pierced in several places by the Greek authorities (May 16, 2008)",samos,Reuters,http://fortresseurope.blogspot.com/2006/01/grecia-guardia-costiera-affonda-zodiac.html,Del grande,1186,21,,,Greece,26.820351,37.743215,Eastern Mediteranean route Sea,,,
734,2008-05-09T22:00:00Z,2008,"drowned, bodies found between Evros River delta and Alexandroupolis port (GR) (May 9, 2008)",evros,NOB/KI,,United,,4,Greece,Turkey,,26.135943,41.244376,Eastern Mediteranean route Land,Drowned,Other,Boat
2275,2008-05-09T22:00:00Z,2008,"stowaways, died from asphyxiation in a track from Istanbul (TR) to GR after traffic accident (May 9, 2008)",istanbul,Picum/Nt7/TodZam/NOB,,United,,18,Greece,Turkey,,28.97696,41.00527,Eastern Mediteranean route Land,Suffocated,Other,Stowaway
2147,2008-05-04T22:00:00Z,2008,"stowaway, car he was transported in crashed after being chased by police in Xanthi (GR) (May 4, 2008)","Xanthi, greece",NOB/KI,,United,,1,Greece,Greece,,24.88649,41.130036,Eastern Mediteranean route Land,Car accident,,Stowaway
843,2008-04-22T22:00:00Z,2008,"drowned, forced by Turkish police to swim across the river that separates TR and Iraq (Apr 22, 2008)",iraq,Unhcr,,United,,4,Greece,Turkey,,43.679291,33.223191,,Drowned,Other,"Walking, swimming"
774,2008-02-09T23:00:00Z,2008,"drowned, body found by fishermen pulling in the nets near the shore of Alexandroupolis (GR) (Feb 9, 2008)",alexandroupolis,NOB/KI,,United,,1,Greece,Turkey,,25.873962,40.845719,Eastern Mediteranean route Sea,Drowned,Other,Boat
834,2008-01-14T23:00:00Z,2008,"drowned, fell into the frozen waters of Evros River (GR) after small boat sank (Jan 14, 2008). From Del Grande's data set (translated): Boat capsizes while trying to cross the Evros River, which separates Turkey from Greece. A woman dies drowned in the icy waters (Jan 15, 2008)",evros,KI/ANA/PICUM/HR,http://www.ana.gr/anaweb/user/showplain?maindoc=6047653&maindocimg=1546521&service=96,United,1142,1,Greece,Greece,,26.135943,41.244376,Eastern Mediteranean route Land,Drowned,Other,Boat
731,2008-01-09T23:00:00Z,2008,"drowned, bodies discovered by GR and TR authorities in north of Aegean sea (Jan 9, 2008)",aegean,PICUM/NOB,,United,,19,Greece,Turkey,,25.520736,37.075546,Eastern Mediteranean route Sea,Drowned,Other,Other
767,2008-01-09T23:00:00Z,2008,"drowned, body discovered by GR and TR authorities in north of Aegean sea (Jan 9, 2008)",aegean,PICUM/NOB,,United,,1,Greece,Turkey,,25.520736,37.075546,Eastern Mediteranean route Sea,Drowned,Other,Other
2274,2008-01-06T23:00:00Z,2008,"stowaways, died from asphyxiation in a track from Istanbul (TR) to GR after traffic accident (Jan 6, 2008)",istanbul,TodZam,,United,,13,Greece,Turkey,,28.97696,41.00527,Eastern Mediteranean route Land,Suffocated,Other,Stowaway
666,2007-12-27T23:00:00Z,2007,"drowned, after ship capsized near Evros (GR), 20 survivors, 7 swam to the TR side (Dec 27, 2007). From Del Grande's data set (translated): Two boats spilling into the river Evros on the border between Turkey and Greece, causing one death and drowned some missing (Dec 28, 2007)",evros,IntHeraldTribune/NOB,http://www.iht.com/articles/ap/2007/12/28/europe/EU-GEN-Turkey-Illegal-Migrants.php,United,1130,1,Greece,Turkey,,26.135943,41.244376,Eastern Mediteranean route Land,Drowned,Other,Boat
1833,2007-12-22T23:00:00Z,2007,"reason of death unknown, a fisherman found a body near Lesvos (GR) (Dec 22, 2007). From Del Grande's data set (translated): Fisherman finds a corpse off the island of Lesvos and soccore a castaway who speaks of 31 men ended up in the sea and missing data (Dec 24, 2007)",lesvos,TDN/NOB,http://www.ekathimerini.com/4dcgi/news/content.asp?aid=91465,United,1126,1,,,Greece,26.372171,39.16408,Eastern Mediteranean route Sea,,,
517,2007-12-06T00:00:00Z,2007,"Cargo load of migrants landed on the island of Crete in Kato Zakros, Lasithi. On board one of the passengers is found dead (Dec 6, 2007)",crete,In,http://www.in.gr/news/article.asp?lngEntityID=855303,Del grande,1117,1,,,Greece,24.809269,35.240117,Eastern Mediteranean route Sea,,,
2109,2007-11-15T23:00:00Z,2007,"shot to death in the stomach during a police check for illegal migrants in Pyla, Cyprus (CY)  (Nov 15, 2007)",cyprus,TDN/IRR/MNS/NOB,,United,,1,,,Greece,33.429859,35.126413,,,,
529,2007-11-09T00:00:00Z,2007,"Police fire on two migrants illegally entered walk to the Albanian border, near Florina. A dead (Nov 9, 2007)",albania,Abc,http://www.ekathimerini.com/4dcgi/news/content.asp?aid=89879,Del grande,1105,1,,,Greece,20.168331,41.153332,,,,
538,2007-10-22T00:00:00Z,2007,"Boat capsizes in stormy seas off the coast of Samos, 17 missing (Oct 22, 2007)",samos,Kathimerini,http://www.ekathimerini.com/4dcgi/_w_articles_politics_100012_23/10/2007_89256,Del grande,1096,17,,,Greece,26.820351,37.743215,Eastern Mediteranean route Sea,,,
757,2007-09-23T22:00:00Z,2007,"drowned, bodies pulled out of the sea near Chios (GR) after boat capsized (Sep 23, 2007). From Del Grande's data set (translated): Shipwreck off the coast of Kusadasi, on the route to Samos, 5 missing (Sep 24, 2007)",sada,KI/NOB,http://www.ekathimerini.com/4dcgi/news/content.asp?aid=88172,United,1082,2,Greece,Turkey,,-8.255738,43.355524,Eastern Mediteranean route Sea,Drowned,Other,Boat
758,2007-09-23T22:00:00Z,2007,"drowned, bodies pulled out of the sea near Samos (GR) after wooden boat capsized (Sep 23, 2007). From Del Grande's data set (translated): Recovered the bodies of four migrants drowned off the islands of Samos and Lesvos, including a child (Sep 24, 2007)",samos,KI/NOB,http://www.ekathimerini.com/4dcgi/news/content.asp?aid=88185,United,1083,2,Greece,Turkey,,26.820351,37.743215,Eastern Mediteranean route Sea,Drowned,Other,Boat
554,2007-09-21T00:00:00Z,2007,"Driver dies in a car crash in Thessaloniki to escape the police: 9 carrying undocumented migrants to Athens (Sep 21, 2007)",athens,Kathimerini,http://www.ekathimerini.com/4dcgi/news/content.asp?aid=88061,Del grande,1080,1,,,Greece,23.72931,37.983716,Eastern Mediteranean route Sea,,,
12,2007-09-07T22:00:00Z,2007,"1 drowned, 1 missing, boat heading to Lesvos (GR) sank off Ayvalik (TR) (Sep 7, 2007)",lesvos,MNS/KI,,United,,2,Greece,Turkey,,26.372171,39.16408,Eastern Mediteranean route Sea,Drowned,Other,Boat
1380,2007-09-05T22:00:00Z,2007,"drowned trying to reach Greece from Turkey, bodies foud next to Samos (GR) (Sep 5, 2007)",samos,KI/FE/MNS,,United,,2,Greece,Turkey,,26.820351,37.743215,Eastern Mediteranean route Sea,Drowned,Other,Boat
565,2007-08-30T00:00:00Z,2007,"Fished out a dead body off the island of Samos (Aug 30, 2007)",samos,Kathimerini,http://www.ekathimerini.com/4dcgi/news/content.asp?aid=87254,Del grande,1069,1,,,Greece,26.820351,37.743215,Eastern Mediteranean route Sea,,,
1964,2007-08-23T22:00:00Z,2007,"reportedly drowned, vessel capsized near the town of Cesme (TR) on way to GR (Aug 23, 2007)",cesme,MNS,,United,,3,Greece,Turkey,,26.314921,38.32981,Eastern Mediteranean route Sea,Drowned,Other,Boat
828,2007-08-22T22:00:00Z,2007,"drowned, disappeared after their boat from Turkey sank off the coast of Chios (GR) (Aug 22, 2007). From Del Grande's data set (translated): Man rescue at sea off the island of Hios, the only survivor of a shipwreck which killed 14 people (Aug 23, 2007)",chios,MNS,http://www.ekathimerini.com/4dcgi/news/content.asp?aid=87075,United,1062,14,Greece,Turkey,,26.136346,38.370981,Eastern Mediteranean route Sea,Drowned,Other,Boat
1592,2007-08-19T22:00:00Z,2007,"illegal worker jumped from building trying to avoid police arrest, Thessaloniki (GR) (Aug 19, 2007)",thessaloniki,MNS/EarthT,,United,,1,,,Greece,22.944606,40.63935,Eastern Mediteranean route Sea,,,
32,2007-08-16T22:00:00Z,2007,"6 drowned, 5 missing, boat capsized near Izmir (TR) trying to reach Greece (Aug 16, 2007). From Del Grande's data set (translated): Shipwreck a few hundred meters from the coast of Izmir, on the routes to the Greek island of Hios. 6 dead and 5 missing (Aug 17, 2007)",izmir,MNS,http://www.ekathimerini.com/4dcgi/news/content.asp?aid=86879,United,1058,11,Greece,Turkey,,27.12872,38.41885,Eastern Mediteranean route Sea,Drowned,Other,Boat
30,2007-08-11T22:00:00Z,2007,"51 found, 35 missing, drowned off Seferihisar (TR) after their overloaded boat sank  (Aug 11, 2007)",seferihisar,ICARE/BBC/GuardianUN/SP/TheGlobe/DPS/IntHeraldTribune/PrensaLibre/Mugak/PrensaGrafica/TDN/AP/CNN/UNHCR/MNS/NOB,,United,,86,Greece,Turkey,,26.833333,38.2,Eastern Mediteranean route Sea,Drowned,Other,Boat
2079,2007-08-10T22:00:00Z,2007,"shot and killed by border guard trying to cross into northwestern Greece (Aug 10, 2007)",Greece,Reu./PICUM,,United,,1,,,Greece,21.824312,39.074208,,,,
607,2007-08-09T22:00:00Z,2007,"drowned,3 missing, coast guard found boat with 117 illegal migrants near Zakynthos Isl. (GR) (Aug 9, 2007)","Zakynthos, greece",VK,,United,,3,,,Greece,20.898827,37.78816,,Drowned,,
589,2007-08-02T00:00:00Z,2007,"Sinking boat off the coast of Samos, dies drowned a woman of 27 years (Aug 2, 2007)",samos,Kathimerini,http://www.ekathimerini.com/4dcgi/news/content.asp?aid=86467,Del grande,1045,1,,,Greece,26.820351,37.743215,Eastern Mediteranean route Sea,,,
144,2007-07-11T22:00:00Z,2007,"body found on boat that landed on Crete (GR), the vessel disembarked from Egypt (Jul 11, 2007)",crete,AthensNewsAgency/NOB,,United,,1,Greece,Africa,,24.809269,35.240117,Eastern Mediteranean route Sea,,Trafficking,Boat
633,2007-06-11T00:00:00Z,2007,"Fished in the waters of the island of Samos the bodies of drowned migrants 2 (Jun 11, 2007)",samos,Kathimerini,http://www.ekathimerini.com/4dcgi/news/content.asp?aid=84368,Del grande,1001,2,,,Greece,26.820351,37.743215,Eastern Mediteranean route Sea,,,
14,2007-04-26T22:00:00Z,2007,"1 drowned, 2 missing after smugglers throw them in sea next to Leros (GR) (Apr 26, 2007). From Del Grande's data set (translated): Forced by the guides to jump into the sea near the coast of the island of Leros. Drown a 15 year old girl. Missing a man and a child of a year and a half (Apr 27, 2007)",leros,KI/FE,http://www.ekathimerini.com/4dcgi/news/content.asp?aid=82895,United,984,3,Greece,Turkey,,26.848843,37.140914,Eastern Mediteranean route Sea,Drowned,Trafficking,Boat
708,2007-04-07T22:00:00Z,2007,"drowned, boat carrying other 12 immigrants capsized near Samos Island (GR) (Apr 7, 2007)",samos,NOB/PressTv,,United,,1,Greece,Asia,,26.820351,37.743215,Eastern Mediteranean route Sea,Drowned,Other,Boat
34,2007-03-16T23:00:00Z,2007,"7 people washed ashore, 4 missing, bodies found in Samos (GR) they left from Turkey (Mar 16, 2007). From Del Grande's data set (translated): Sinking a boat heading to the island of Samos, recovered seven bodies, including that of a child, 4 missing (Mar 17, 2007)",samos,FE/KI/DPA,http://www.ekathimerini.com/4dcgi/_w_articles_politics_100012_19/03/2007_81374,United,976,11,Greece,Turkey,,26.820351,37.743215,Eastern Mediteranean route Sea,,Other,Boat
610,2007-02-15T23:00:00Z,2007,"drowned, 4 found, 20 missing, boat sank near Samos Islands (GR), way from TR to GR (Feb 15, 2007). From Del Grande's data set (translated): Shipwreck off the coast of the island of Samos. Recovered the bodies of drowned 5, including 2 women. At least 20 missing (Feb 17, 2007)",samos,Khaleej/PR/IntHeraldTribune/MNS/PR/IntHeraldTribune/AOL/PICUM/MNS,http://www.ekathimerini.com/4dcgi/_w_articles_politics_100019_20/02/2007_80289,United,972,24,Greece,Turkey,,26.820351,37.743215,Eastern Mediteranean route Sea,Drowned,Other,Boat
617,2007-02-01T23:00:00Z,2007,"drowned, 7 found, 10 missing after boat from Turkey sank off the island Samos (GR)  (Feb 1, 2007). From Del Grande's data set (translated): 7 bodies recovered and 12 missing after a shipwreck at a mile from the island of Samos (Feb 5, 2007)",samos,KI/AthensNewsAgency/Khaleej/NOB/MNS/PICUM,http://www.ekathimerini.com/4dcgi/news/content.asp?aid=79771,United,969,17,Greece,Turkey,,26.820351,37.743215,Eastern Mediteranean route Sea,Drowned,Other,Boat
2297,2007-01-21T23:00:00Z,2007,"stowaways, found hidden under a coffin been trasported from in Kypoi (GR) (Jan 21, 2007)","Kypoi, greece",MNS/TP,,United,,2,Greece,Greece,,20.792365,39.864207,Circular route from Greece and Albania,,Other,Stowaway
591,2007-01-16T23:00:00Z,2007,"drowned, 2 found, 5 missing boat from Turkey sank off the Samos island (GR) (Jan 16, 2007). From Del Grande's data set (translated): Sink a small boat off the island of Samos, 2 dead and 5 missing (Jan 18, 2007)",samos,KI/NOB,http://www.ekathimerini.com/4dcgi/news/content.asp?aid=79018,United,968,7,Greece,Turkey,,26.820351,37.743215,Eastern Mediteranean route Sea,Drowned,Other,Boat
963,2007-01-09T23:00:00Z,2007,"drowned, shipwreck near Balikesir (TR) crossing the border from TR to GR, 11 survivors (Jan 9, 2007)",balikesir,Kuna,,United,,15,Greece,Turkey,,27.88261,39.648369,Eastern Mediteranean route Sea,Drowned,Other,Boat
222,2006-12-31T23:00:00Z,2006,"died, smugglers forced them overboard to easily escape from Samos Coast Guard (GR) (Dec 31, 2006)",samos,GHM,,United,,50,Greece,Greece,,26.820351,37.743215,Eastern Mediteranean route Sea,,Trafficking,Boat
582,2006-11-18T23:00:00Z,2006,"drowned, 1 found, 2 missing, boat capsized off Izmir s (TR) coast on way to Greek  (Nov 18, 2006)",izmir,IntHerald/KI/FE/NOB,,United,,3,Greece,Turkey,,27.12872,38.41885,Eastern Mediteranean route Sea,Drowned,Other,Boat
1095,2006-11-11T23:00:00Z,2006,"drowned after boat capsized near Seferihisar (TR) trying to reach GR coast (Nov 11, 2006)",seferihisar,TDN/TP/Ya.D,,United,,51,Greece,Turkey,,26.833333,38.2,Eastern Mediteranean route Sea,Drowned,Trafficking,Boat
451,2006-10-31T23:00:00Z,2006,"died of heart attacked during police custody in Athens (GR) in fear of deportation (Oct 31, 2006)",athens,MNS,,United,,1,,,Greece,23.72931,37.983716,Eastern Mediteranean route Sea,,,
1940,2006-10-09T22:00:00Z,2006,"reportedly drowned, missing after boat sank near Kithira Island (GR) (Oct 9, 2006). From Del Grande's data set (translated): Shipwreck near the coast of Antikythera, 40 people missing at sea (Oct 11, 2006)","Kithira Island, greece",KI/MP/PICUM/ABC/FE,http://www.ekathimerini.com/4dcgi/news/content.asp?aid=75259,United,936,40,Greece,Greece,,22.97737,36.263269,Eastern Mediteranean route Sea,Drowned,Other,Boat
381,2006-10-08T22:00:00Z,2006,"died in minefield after entered in Vyssas area, in Evros (Greek/Turkish border) (Oct 8, 2006)",evros,KI/FE/MNS/FR-BB,,United,,2,Greece,Turkey,,26.135943,41.244376,Eastern Mediteranean route Land,Minefield,Self organised,"Walking, swimming"
614,2006-09-25T22:00:00Z,2006,"drowned, 6 found, 3 missing, reportedly thrown into Turkish sea by Greek coastguard (Sep 25, 2006). From Del Grande's data set (translated): 6 dead, 2 missing off the coast of Izmir, but the survivors accuse the Greek Coast Guard, which would have forsaken them in Turkish waters after which the day before had landed on the Greek island of Chios (Sep 26, 2006)",izmir,SC/TP/FE/TDN/MNS/FR-BB/NOB/PICUM/PR/jW,http://www.turkishpress.com/news.asp?id=143841,United,932,9,Greece,Turkey,,27.12872,38.41885,Eastern Mediteranean route Sea,Drowned,Other,Boat
710,2006-09-12T00:00:00Z,2006,"2 dead in Evros minefields along the border with Turkey (Sep 12, 2006)",evros,Kathimerini,http://www.ekathimerini.com/4dcgi/news/content.asp?aid=74101,Del grande,924,2,,,Greece,26.135943,41.244376,Eastern Mediteranean route Land,,,
717,2006-09-03T00:00:00Z,2006,"A ship runs aground near the coast of Hania, Crete, one of the passengers died (Sep 3, 2006)",crete,Kathimerini,http://www.ekathimerini.com/4dcgi/_w_articles_politics_100022_02/09/2006_73757,Del grande,917,1,,,Greece,24.809269,35.240117,Eastern Mediteranean route Sea,,,
723,2006-09-01T00:00:00Z,2006,"Crete: a boat slamming against the rocks and sinks. 7 missing (Sep 1, 2006)",crete,Ansa,http://dea.ansa.it/,Del grande,911,7,,,Greece,24.809269,35.240117,Eastern Mediteranean route Sea,,,
246,2006-07-24T22:00:00Z,2006,"died after explosion in minefield in Evros (GR) trying to cross Turkish-Greek border (Jul 24, 2006)",evros,PICUM/KI/MNS/NOB,,United,,2,Greece,Turkey,,26.135943,41.244376,Eastern Mediteranean route Land,Minefield,Self organised,"Walking, swimming"
654,2006-06-05T22:00:00Z,2006,"drowned, after boat sank 2.5km of Island Samos (GR) sailing with 22  saved by vassel (Jun 5, 2006). From Del Grande's data set (translated): Shipwreck off the island of Samos, a child dies (Jun 7, 2006)",samos,PICUM/KI/NCAs/Statewatch/MNS/FE/NOB/TP,http://www.ekathimerini.com/4dcgi/news/content.asp?aid=70623,United,865,1,Greece,Turkey,,26.820351,37.743215,Eastern Mediteranean route Sea,Drowned,Other,Boat
383,2006-05-29T22:00:00Z,2006,"died in minefield crossing Turkish-Greek border  (May 29, 2006)",Turkey to Greece,IMK,,United,,1,Greece,Turkey,,26.613007,38.652771,Eastern Mediteranean route Sea,Minefield,Self organised,"Walking, swimming"
2305,2006-05-18T22:00:00Z,2006,"stowaways, small truck crashed into parked trailer on highway near Osmaniye (TR) (May 18, 2006). From Del Grande's data set (translated): A truck with immigrants on board collided with a truck in southern Turkey, near the province of Adana, Osmaniye: 44 dead (May 20, 2006)",osmaniye,FECL/IPL/Ya.N/PICUM/MNS/FE/TDN/NOB/AFP,http://www.turkishdailynews.com.tr/article.php?enewsid=44080,United,860,42,Greece,Turkey,,36.25,37.07,,Car accident,Trafficking,Stowaway
907,2006-04-11T22:00:00Z,2006,"drowned, missing, after boat carrying 29 sank off Turkey s West coast, way to Greece (Apr 11, 2006)",Turkey to Greece,TDN/FE/PR,,United,,3,Greece,Turkey,,26.613007,38.652771,Eastern Mediteranean route Sea,Drowned,Other,Boat
1412,2006-03-31T22:00:00Z,2006,"drowned while swimming to the island of Lesvos (GR), after boat sank 80m from coast (Mar 31, 2006)",lesvos,NOB/MNS/Statewatch/KI/FE,,United,,1,Greece,Greece,,26.372171,39.16408,Eastern Mediteranean route Sea,Drowned,Other,Boat
795,2006-02-20T00:00:00Z,2006,"Sinking a boat 30 meters from the coast of Oinousses, near Chios, 1 dead (Feb 20, 2006)",chios,Kathimerini,http://www.ekathimerini.com/4dcgi/news/content.asp?aid=66612,Del grande,839,1,,,Greece,26.136346,38.370981,Eastern Mediteranean route Sea,,,
823,2006-02-18T23:00:00Z,2006,"drowned, dinghy carrying 6 Afghans sank off Chios (GR) on way from Turkey (Feb 18, 2006)",chios,Statewatch/FE/KI,,United,,1,Greece,Turkey,,26.136346,38.370981,Eastern Mediteranean route Sea,Drowned,Other,Boat
1553,2006-02-14T23:00:00Z,2006,"frozen, died while crossing the Bulgarian-Greek border on mount Falakon (Feb 14, 2006)",bulgaria,Statewatch/MNS,,United,,1,Greece,Bulgaria,,25.48583,42.733883,Eastern Mediteranean route Land,Frozen,Other,"Walking, swimming"
416,2006-02-12T23:00:00Z,2006,"died of a shock after his cousin was beaten up by border guards in Patras port (GR) (Feb 12, 2006)",patras,Statewatch/MNS,,United,,1,,,Greece,21.734574,38.24664,,,,
581,2006-02-04T23:00:00Z,2006,"drowned, 1 found, 1 missing, shipwreck near Kusadasi (TR) on way to Samos Isl. (GR) (Feb 4, 2006)",sada,Statewatch/IPL/MNS/NOB/Pravda/AFP,,United,,2,Greece,Turkey,,-8.255738,43.355524,Eastern Mediteranean route Sea,Drowned,Other,Boat
1527,2006-01-20T23:00:00Z,2006,"found frozen on dinghy from TR to GR carrying migrants from Pakistan and Bangladesh (Jan 20, 2006). From Del Grande's data set (translated): 2 inflatable boats rescued off the island of Evia, on board 3 dead frostbitten (Jan 23, 2006)",evia,Statewatch/KI/FE/NOB,http://www.ekathimerini.com/4dcgi/news/content.asp?aid=65479,United,834,3,Greece,Turkey,,23.858474,38.523604,Eastern Mediteranean route Sea,Frozen,Other,Boat
1938,2006-01-08T23:00:00Z,2006,"reportedly drowned, missing afer boat sank near the coasts of Crete Island (GR) (Jan 8, 2006)",crete,FE/FR-BB,,United,,7,Greece,Greece,,24.809269,35.240117,Eastern Mediteranean route Sea,Drowned,Other,Boat
802,2006-01-04T00:00:00Z,2006,"Small boat sank near the island Lesvos, 1 dead (Jan 4, 2006)",lesvos,Kathimerini,http://www.ekathimerini.com/4dcgi/news/content.asp?aid=64787,Del grande,832,1,,,Greece,26.372171,39.16408,Eastern Mediteranean route Sea,,,
808,2005-12-10T00:00:00Z,2005,"Minefield of Kastanies, greek-turkish border. An explosion kills 2 people. They tried to enter illegally in Greece (Dec 10, 2005)",kastanies,Kathimerini,http://www.ekathimerini.com/4dcgi/news/content.asp?aid=63984,Del grande,826,2,,,Greece,26.476442,41.645487,Eastern Mediteranean route Land,,,
2179,2005-11-14T23:00:00Z,2005,"stowaway, driver lost control over truck attempting to escape police in Prevenza (GR) (Nov 14, 2005). From Del Grande's data set (translated): Pull off the road to avoid the checkpoint, illegally transporting 12 people direct to Athens. 1 dead, 2 injured in the incident serious (Nov 15, 2005)",athens,KI/FE,http://www.ekathimerini.com/4dcgi/news/content.asp?aid=63024,United,817,1,Greece,Albania,,23.72931,37.983716,Eastern Mediteranean route Sea,Car accident,Trafficking,Stowaway
819,2005-11-04T00:00:00Z,2005,"Small boat sank off the coast of Greece in direct Cesme (Turkey), 12 dead, 18 missing (Nov 4, 2005)",cesme,Kathimerini,http://www.ekathimerini.com/4dcgi/news/content.asp?aid=62624,Del grande,815,30,,,Greece,26.314921,38.32981,Eastern Mediteranean route Sea,,,
823,2005-10-25T00:00:00Z,2005,"Rescued vessel in distress off the coast of Crete. On board 1 dead (Oct 25, 2005)",crete,Kathimerini,http://www.ekathimerini.com/4dcgi/news/content.asp?aid=62267,Del grande,811,1,,,Greece,24.809269,35.240117,Eastern Mediteranean route Sea,,,
2085,2005-10-08T22:00:00Z,2005,"shot by Greek border guard near the border with Macedonia (Oct 8, 2005)",Macedonia to Greece,MNS,,United,,1,Greece,Macedonia,,22.071533,41.14943,,,Other,Other
74,2005-09-11T22:00:00Z,2005,"blown in minefield at the TR-GR border. Bodies found by authorities in Kastanies (GR) (Sep 11, 2005)",kastanies,MNS/KI/FE,,United,,2,Greece,Turkey,,26.476442,41.645487,Eastern Mediteranean route Land,Minefield,Other,"Walking, swimming"
844,2005-09-10T00:00:00Z,2005,"Hidden in the back of a truck, muoino 4 people in a car accident. They were attempting to enter Greece illegally (Sep 10, 2005)",Greece,Kathimerini,http://www.ekathimerini.com/4dcgi/news/content.asp?aid=60613,Del grande,790,4,,,Greece,21.824312,39.074208,,,,
851,2005-08-08T00:00:00Z,2005,"Sinking boat off the coast of Crete immediate relief. 1 dead (Aug 8, 2005)",crete,Kathimerini,http://www.ekathimerini.com/4dcgi/news/content.asp?aid=59437,Del grande,783,1,,,Greece,24.809269,35.240117,Eastern Mediteranean route Sea,,,
24,2005-08-07T22:00:00Z,2005,"2 drowned, 7 missing after boat capsized off the coast of Lesvos (GR) (Aug 7, 2005). From Del Grande's data set (translated): Sinking boat off the coast of Lesvos. 2 dead, 7 missing (Aug 26, 2005)",lesvos,PICUM,http://www.ekathimerini.com/4dcgi/news/content.asp?aid=60049,United,787,9,Greece,Greece,,26.372171,39.16408,Eastern Mediteranean route Sea,Drowned,Other,Boat
1142,2005-07-19T22:00:00Z,2005,"drowned after small boat capsised in attempt to reach Kos island in the Aegean Sea (Jul 19, 2005)",kos,ORF,,United,,2,Greece,Asia,,27.102943,36.799851,Eastern Mediteranean route Sea,Drowned,Other,Stowaway
644,2005-06-25T22:00:00Z,2005,"drowned, after boat capsized off the coast of Turkey near Dikili (Jun 25, 2005). From Del Grande's data set (translated): Boat capsized off the coast of Greece in direct Dikili, 2 dead (Jun 27, 2005)",dikili,MNS/NOB,http://www.ekathimerini.com/4dcgi/news/world_&xml/&aspKath/world.asp?fdate=27/06/2005,United,773,2,Greece,Turkey,,26.888203,39.072097,Eastern Mediteranean route Sea,Drowned,Other,Boat
868,2005-06-16T00:00:00Z,2005,"Hidden on a Dutch ship live in Greece, the captain discovers them and throws them overboard. 2 men drowned (Jun 16, 2005)",Greece,Migration News Sheet,http://www.migpolgroup.com/topics/2054.html,Del grande,766,2,,,Greece,21.824312,39.074208,,,,
1123,2005-06-07T22:00:00Z,2005,"drowned after his boat sank off the southern coast of Crete (GR) (Jun 7, 2005)",crete,PICUM/NOB,,United,,1,Greece,Greece,,24.809269,35.240117,Eastern Mediteranean route Sea,Drowned,Other,Boat
72,2005-05-28T22:00:00Z,2005,"blown in a minefiled between Turkey and Greece while crossing border (May 28, 2005). From Del Grande's data set (translated): Minefield in Evros, greek-turkish border. An explosion ago 2 deaths. They tried to enter illegally in Greece (May 30, 2005)",evros,MAG,http://www.ekathimerini.com/4dcgi/news/content.asp?aid=56880,United,760,2,Greece,Turkey,,26.135943,41.244376,Eastern Mediteranean route Land,Minefield,Self organised,"Walking, swimming"
881,2005-04-26T00:00:00Z,2005,"Boat rescued off the island Farmakonisi, 2 missing (Apr 26, 2005)",farmakonisi,Kathimerini,http://www.ekathimerini.com/4dcgi/_w_articles_politics_100008_26/04/2005_55702,Del grande,753,2,,,Greece,27.088338,37.282956,Eastern Mediteranean route Sea,,,
880,2005-04-26T00:00:00Z,2005,"Small boat rammed by a freighter off the coast of Chios, 2 dead and 5 injured (Apr 26, 2005)",chios,Kathimerini,http://www.ekathimerini.com/4dcgi/_w_articles_politics_100008_26/04/2005_55702,Del grande,754,2,,,Greece,26.136346,38.370981,Eastern Mediteranean route Sea,,,
75,2005-04-03T22:00:00Z,2005,"blown in minefield in attempt to cross the Turkish-Greek border (Apr 3, 2005). From Del Grande's data set (translated): Minefield in Evros, greek-turkish border. An explosion ago 2 dead and one wounded. They tried to enter illegally in Greece (Apr 5, 2005)",evros,TI/MAG/DPA/taz,http://www.ekathimerini.com/4dcgi/_w_articles_politics_100022_05/04/2005_54825,United,746,2,Greece,Turkey,,26.135943,41.244376,Eastern Mediteranean route Land,Minefield,Trafficking,Other
3,2005-02-10T23:00:00Z,2005,"12 drowned, 18 missing boat with 36 migrants to Greek capsized near Cesme (TR) (Feb 10, 2005)",cesme,MNS/Statewatch/Ya.N/KI/FE/NOB,,United,,30,Greece,Greece,,26.314921,38.32981,Eastern Mediteranean route Sea,Drowned,Other,Boat
649,2005-01-31T23:00:00Z,2005,"drowned, after boat carrying 15 people sank off Turkish coast (Jan 31, 2005)",Turkey to Greece,TP/PICUM/NOB,,United,,1,Greece,Turkey,,26.613007,38.652771,Eastern Mediteranean route Sea,Drowned,Other,Boat
1869,2005-01-31T23:00:00Z,2005,"reportedly drowned, after a boat carrying 15 people sank off Turkish coast (Jan 31, 2005)",Turkey to Greece,TP/PICUM/NOB,,United,,1,Greece,Turkey,,26.613007,38.652771,Eastern Mediteranean route Sea,Drowned,Other,Boat
900,2005-01-10T00:00:00Z,2005,"Sink a small boat to the island Samos in the Aegean Sea live. 3 dead, 13 survivors were arrested (Jan 10, 2005)",samos,The Australian,http://www.theaustralian.news.com.au/common/story_page/0,Del grande,734,3,,,Greece,26.820351,37.743215,Eastern Mediteranean route Sea,,,
914,2004-12-15T00:00:00Z,2004,"Found a body on the coast of the Greek island Barbalia (Dec 15, 2004)","Barbalia, greece",Kathimerini,http://www.ekathimerini.com/4dcgi/_w_articles_politics_100020_15/12/2004_50735,Del grande,720,1,,,Greece,26.437219,39.309142,Eastern Mediteranean route Sea,,,
1106,2004-12-13T23:00:00Z,2004,"drowned after boat carrying 17 people sank off Samos (GR) 4 days before (Dec 13, 2004)",samos,MNS/NOB,,United,,1,Greece,Turkey,,26.820351,37.743215,Eastern Mediteranean route Sea,Drowned,Other,Boat
915,2004-12-11T00:00:00Z,2004,"Sink a small boat near Samos. 3 dead (Dec 11, 2004)",samos,The Australian,http://www.theaustralian.news.com.au/common/story_page/0,Del grande,719,3,,,Greece,26.820351,37.743215,Eastern Mediteranean route Sea,,,
916,2004-12-07T00:00:00Z,2004,"Minefield in Evros, greek-turkish border. An explosion ago 2 deaths. They tried to enter illegally in Greece (Dec 7, 2004)",evros,Kathimerini,http://www.ekathimerini.com/4dcgi/_w_articles_politics_100013_06/12/2004_50387,Del grande,718,2,,,Greece,26.135943,41.244376,Eastern Mediteranean route Land,,,
76,2004-11-13T23:00:00Z,2004,"blown up in a minefield at the turkish-Greek border, near Evros (GR) (Nov 13, 2004). From Del Grande's data set (translated): Minefield in Evros, greek-turkish border. An explosion ago 3 deaths. They tried to enter illegally in Greece (Nov 14, 2004)",evros,ORF/NOB,http://derstandard.at/?url=/?id=1857496,United,712,3,Greece,Turkey,,26.135943,41.244376,Eastern Mediteranean route Land,Minefield,Other,"Walking, swimming"
926,2004-11-02T00:00:00Z,2004,"Boy dies suffocated, he was hiding in a Dutch container loaded on a ferry greek direct to Ancona (Nov 2, 2004)",ancona,Kathimerini,http://www.ekathimerini.com/4dcgi/_w_articles_politics_100022_01/11/2004_48985,Del grande,708,1,,,Greece,13.518915,43.61583,,,,
1107,2004-10-11T22:00:00Z,2004,"drowned after boat carrying 17 people sank off Samos (GR) (Oct 11, 2004)",samos,MNS/NOB,,United,,3,Greece,Turkey,,26.820351,37.743215,Eastern Mediteranean route Sea,Drowned,Other,Boat
650,2004-10-10T22:00:00Z,2004,"drowned, after boat  from Africa capsized in Aegean Sea (Oct 10, 2004)",aegean,MNS/NOB,,United,,9,Greece,Turkey,,25.520736,37.075546,Eastern Mediteranean route Sea,Drowned,Trafficking,Boat
1873,2004-10-10T22:00:00Z,2004,"reportedly drowned, after boat  from Africa capsized in Aegean Sea (Oct 10, 2004)",aegean,MNS,,United,,7,Greece,Turkey,,25.520736,37.075546,Eastern Mediteranean route Sea,Drowned,Trafficking,Boat
931,2004-10-06T00:00:00Z,2004,"Minefield in Evros, greek-turkish border. An explosion ago 1 dead. He tried to enter illegally in Greece (Oct 6, 2004)",evros,DerStandard,http://derstandard.at/?url=/?id=1814062,Del grande,703,1,,,Greece,26.135943,41.244376,Eastern Mediteranean route Land,,,
678,2004-09-19T22:00:00Z,2004,"drowned, after their boat capsized in stormy waters off of the Greek coast near Samos (Sep 19, 2004). From Del Grande's data set (translated): Sink a small boat off the coast of Samos. 5 dead, 7 missing (Sep 13, 2004)",samos,PICUM,http://www.ekathimerini.com/4dcgi/_w_articles_politics_100014_13/09/2004_47220,United,697,5,Greece,Asia,,26.820351,37.743215,Eastern Mediteranean route Sea,Drowned,Other,Boat
936,2004-09-15T00:00:00Z,2004,"Found along the coast of Lesvos 5 corpses (Sep 15, 2004)",lesvos,Kathimerini,http://www.ekathimerini.com/4dcgi/_w_articles_politics_100023_15/09/2004_47310,Del grande,698,0,,,Greece,26.372171,39.16408,Eastern Mediteranean route Sea,,,
953,2004-08-06T00:00:00Z,2004,"One dead and 4 wounded on antipersonnel minefields in Evros in north-eastern border with Turkey (Aug 6, 2004)",evros,Ansa,http://dea.ansa.it/,Del grande,681,4,,,Greece,26.135943,41.244376,Eastern Mediteranean route Land,,,
209,2004-07-05T22:00:00Z,2004,"decomposing bodies were found in the southwest of the island of Crete (GR) (Jul 5, 2004)",crete,ANSA,,United,,9,Greece,Greece,,24.809269,35.240117,Eastern Mediteranean route Sea,Drowned,Other,Other
960,2004-06-07T00:00:00Z,2004,"Found the remains of 13 men drowned, along the shores of the islet of Koufonissi, south of Crete (Jun 7, 2004)",crete,Kathimerini,http://www.ekathimerini.com/4dcgi/news/content.asp?aid=43633,Del grande,674,13,,,Greece,24.809269,35.240117,Eastern Mediteranean route Sea,,,
382,2004-05-07T22:00:00Z,2004,"died in minefield at TR-GR border with 4 Palestinians and 2 Moroccan who survived (May 7, 2004)",evros,YaN,,United,,1,Greece,Turkey,,26.135943,41.244376,Eastern Mediteranean route Land,Minefield,Other,"Walking, swimming"
819,2004-05-05T22:00:00Z,2004,"drowned, decomposed bodies retrieved from sea off island of Crete (GR) (May 5, 2004)",crete,MNS,,United,,4,Greece,Greece,,24.809269,35.240117,Eastern Mediteranean route Sea,Drowned,Other,Boat
245,2004-04-11T22:00:00Z,2004,"died after explosion in minefield in Evros (GR) trying to cross Turkish-Greek border (Apr 11, 2004)",evros,PICUM/KI/MNS/NOB,,United,,2,Greece,Turkey,,26.135943,41.244376,Eastern Mediteranean route Land,Minefield,Self organised,"Walking, swimming"
829,2004-01-29T23:00:00Z,2004,"drowned, discovered near Rafina (GR) after their boat sank in stormy sea  (Jan 29, 2004)",rafina,MNS,,United,,5,Greece,Greece,,24.005924,38.023446,Eastern Mediteranean route Sea,Drowned,Other,Boat
1407,2004-01-29T23:00:00Z,2004,"drowned when trying to swim across river Evros between Turkey and Greece (Jan 29, 2004)",evros,MNS,,United,,5,Greece,Turkey,,26.135943,41.244376,Eastern Mediteranean route Land,Drowned,Other,"Walking, swimming"
1562,2004-01-29T23:00:00Z,2004,"frozen to death during blizzard, trying to cross Turkish-Greek border near Feres (Jan 29, 2004). From Del Grande's data set (translated): 5 dead bodies found in Thrace, near the turkish border, died of cold in a snow storm while trying to illegally cross the border on foot (Jan 30, 2004)",Thrace,NON,http://www.ekathimerini.com/4dcgi/_w_articles_politics_100018_31/01/2004_39067,United,652,5,Greece,Turkey,,26,42,Eastern Mediteranean route Land,Frozen,Other,"Walking, swimming"
1874,2004-01-29T23:00:00Z,2004,"reportedly drowned, after boat sank in stormy sea near Rafina (GR) (Jan 29, 2004)",rafina,MNS,,United,,14,Greece,Greece,,24.005924,38.023446,Eastern Mediteranean route Sea,Drowned,Other,Boat
747,2004-01-28T23:00:00Z,2004,"drowned, bodies found off Karystos (GR), boat sank in stormy waters (Jan 28, 2004)",karystos,NOB,,United,,5,Greece,Turkey,,24.419899,38.013999,Eastern Mediteranean route Sea,Drowned,Other,Boat
1876,2004-01-28T23:00:00Z,2004,"reportedly drowned, after boat sank off Karystos (GR) (Jan 28, 2004). From Del Grande's data set (translated): During a storm sinks boat of migrants off the coast of Evia. Recovered 4 dead, 14 missing (Jan 29, 2004)",evia,NOB,http://www.ekathimerini.com/4dcgi/_w_articles_politics_100018_31/01/2004_39067,United,651,14,Greece,Turkey,,23.858474,38.523604,Eastern Mediteranean route Sea,Drowned,Other,Boat
718,2003-12-19T23:00:00Z,2003,"drowned, boat sank off coast of Marmaris (TR) on way from Turkey to Greece (Dec 19, 2003)","Marmaris, Turkey",MNS/NI/AP/SP/Kurier/Vielfaltletter/BBC/MUGAK/IMK,,United,,7,Greece,Turkey,,28.255586,36.850566,Eastern Mediteranean route Sea,Drowned,Other,Boat
1877,2003-12-19T23:00:00Z,2003,"reportedly drowned, after boat sank off Turkish coast  on way from Turkey to Greece (Dec 19, 2003)",Turkey to Greece,MNS/NI/AP/SP/Kurier/Vielfaltletter/BBC/MUGAK/IMK,,United,,2,Greece,Turkey,,26.613007,38.652771,Eastern Mediteranean route Sea,Drowned,Other,Boat
1906,2003-12-19T23:00:00Z,2003,"reportedly drowned, boat sank off Turkish coast  on way from Turkey to Greece (Dec 19, 2003). From Del Grande's data set (translated): A wooden ship of 14 m from Turkey match, abandoned by her captain, sank off the coast of Rhodes. 52 dead (Dec 22, 2003)","Rhodes, Greece",MNS/NI/AP/SP/Kurier/Vielfaltletter/BBC/MUGAK/IMK,http://www.ekathimerini.com/4dcgi/_w_articles_politics_100028_27/12/2003_37833,United,645,51,Greece,Turkey,,27.971761,36.163149,Eastern Mediteranean route Sea,Drowned,Other,Boat
1009,2003-10-03T00:00:00Z,2003,"It overturns a boat heading to the island of Evia, 5 drowned (Oct 3, 2003)",evia,Ansa,http://dea.ansa.it/,Del grande,625,5,,,Greece,23.858474,38.523604,Eastern Mediteranean route Sea,,,
390,2003-09-28T22:00:00Z,2003,"died in minefield trying to cross the Turkish-Greek border (Sep 28, 2003). From Del Grande's data set (translated): Minefield in Evros, greek-turkish border. An explosion ago 7 deaths. They tried to enter illegally in Greece (Sep 30, 2003)",evros,MNS/Flüchtlingsrat-Brandenburg/BBC,http://news.bbc.co.uk/2/hi/europe/3149744.stm,United,620,7,Greece,Turkey,,26.135943,41.244376,Eastern Mediteranean route Land,Minefield,Self organised,"Walking, swimming"
2107,2003-09-22T22:00:00Z,2003,"shot to death by border guard while trying to cross Albanian-Greek border (Sep 22, 2003). From Del Grande's data set (translated): Eighteen year old fatally shot by Greek police while trying to cross the border of Albania (Sep 23, 2003)",albania,AI,http://web.amnesty.org/library/Index/FRAEUR250122004?open&of=FRA-GRC,United,619,1,Greece,Albania,,20.168331,41.153332,,,Self organised,"Walking, swimming"
1239,2003-09-08T22:00:00Z,2003,"drowned in river Evros on Turkish-Greek border after boat capsized (Sep 8, 2003). From Del Grande's data set (translated): 26 bodies recovered in the Evros River, along the border between Turkey and Greece, among the victims 2 women (Sep 10, 2003)",evros,BBC/Statewatch/AP,http://news.bbc.co.uk/2/hi/europe/3098268.stm,United,616,26,Greece,Turkey,,26.135943,41.244376,Eastern Mediteranean route Land,Drowned,Other,Boat
1050,2003-08-13T22:00:00Z,2003,"drowned, trafficker made hole in boat on way from Ayvalik (TR) to Lesbos (GR) (Aug 13, 2003). From Del Grande's data set (translated): Vessel sinks overloaded Direct in Greece, having capsized off the coast of Lesbos. 5 dead and 10 missing (Aug 14, 2003)",lesbos,Twee Vandaag,http://www.heraldsun.news.com.au/common/story_page/0,United,610,5,Greece,Turkey,,26.372171,39.16408,Eastern Mediteranean route Sea,Drowned,Trafficking,Boat
551,2003-03-31T22:00:00Z,2003,"died on Thracian (TR/GR) border straying into marked minefield in thick fog (Mar 31, 2003)",Thrace,KI,,United,,2,Greece,Turkey,,26,42,Eastern Mediteranean route Land,Minefield,Other,"Walking, swimming"
1049,2003-03-26T00:00:00Z,2003,"1 dead, 1 injured on antipersonnel minefields in Evros, on the northeastern border with Turkey (Mar 26, 2003)",evros,Ansa,http://dea.ansa.it/,Del grande,585,2,,,Greece,26.135943,41.244376,Eastern Mediteranean route Land,,,
1348,2003-03-09T23:00:00Z,2003,"drowned near the Island of Evia (GR) trying to reach Greek coast by boat (Mar 9, 2003)",evia,MNS/Flüchtlingsrat-Brandenburg/ILM,,United,,5,Greece,Greece,,23.858474,38.523604,Eastern Mediteranean route Sea,Drowned,Other,Boat
1065,2003-01-13T00:00:00Z,2003,"Found the body of a boy froze to death trying to cross the border on foot between Albania and Greece on Mount Vitsio, Kastoria (Jan 13, 2003)",kastoria,Ansa,http://dea.ansa.it/,Del grande,569,1,,,Greece,21.268717,40.519269,,,,
1069,2003-01-07T00:00:00Z,2003,"Recovered from the sea the remains of six people on the island of Symi (Jan 7, 2003)",symi,Kathimerini,http://www.ekathimerini.com/4dcgi/_w_articles_politics_100013_07/01/2003_24909,Del grande,565,6,,,Greece,27.842865,36.585572,Eastern Mediteranean route Sea,,,
1068,2003-01-07T00:00:00Z,2003,"Minefield in Evros, greek-turkish border. An explosion ago 2 dead and one wounded. They tried to enter illegally in Greece (Jan 7, 2003)",evros,Kathimerini,http://www.ekathimerini.com/4dcgi/_w_articles_politics_100013_07/01/2003_24909,Del grande,566,2,,,Greece,26.135943,41.244376,Eastern Mediteranean route Land,,,
73,2003-01-02T23:00:00Z,2003,"blown in  minefield at the border between Turkey and Greece (Jan 2, 2003)",Thrace,IRR,,United,,1,Greece,Turkey,,26,42,Eastern Mediteranean route Land,Minefield,Self organised,"Walking, swimming"
808,2002-12-31T23:00:00Z,2002,"drowned, corpse found on beach on the island Evia in Greece (Dec 31, 2002)",evia,KI,,United,,1,Greece,Greece,,23.858474,38.523604,Eastern Mediteranean route Sea,Drowned,Other,Boat
814,2002-12-31T23:00:00Z,2002,"drowned, dead bodies found on beaches on Dodecanese island Symi in Greece (Dec 31, 2002)",symi,KI/IRR,,United,,5,Greece,Greece,,27.842865,36.585572,Eastern Mediteranean route Sea,Drowned,Other,Boat
869,2002-12-31T23:00:00Z,2002,"drowned, found dead on beach on Symi island (GR) (Dec 31, 2002)",symi,KI/IRR,,United,,1,Greece,Greece,,27.842865,36.585572,Eastern Mediteranean route Sea,Drowned,Other,Boat
1073,2002-12-24T23:00:00Z,2002,"drowned, when inflatable dinghy sank off the coast of the island Chios (GR) (Dec 24, 2002). From Del Grande's data set (translated): Sinking boat off the coast of Chios, 4 dead, 5 missing (Dec 27, 2002)",chios,AP,http://www.hri.org/news/greek/ana/2002/02-12-27.ana.html,United,561,4,Greece,Greece,,26.136346,38.370981,Eastern Mediteranean route Sea,Drowned,Trafficking,Boat
1921,2002-12-24T23:00:00Z,2002,"reportedly drowned,dinghy sank off the coast of the island Chios (GR) (Dec 24, 2002)",chios,AP,,United,,4,Greece,Greece,,26.136346,38.370981,Eastern Mediteranean route Sea,Drowned,Trafficking,Boat
1638,2002-12-23T23:00:00Z,2002,"Kurd, drowned trying to swim ashore when boat sank near coast of Korfu (GR) (Dec 23, 2002)","Corfu, Greece",MNS/AP,,United,,2,Greece,Greece,,19.830605,39.611839,Eastern Mediteranean route Sea,Drowned,Other,Boat
1075,2002-12-20T00:00:00Z,2002,"Sink two boats in a stormy sea in the waters of the island Evia, 12 dead (Dec 20, 2002)",evia,Kathimerini,http://www.ekathimerini.com/4dcgi/news/content.asp?aid=24560,Del grande,559,12,,,Greece,23.858474,38.523604,Eastern Mediteranean route Sea,,,
597,2002-12-18T23:00:00Z,2002,"drowned, 2 vessels got caught in a storm off the island Evia (GR) (Dec 18, 2002)",evia,MNS/AP,,United,559,10,Greece,Greece,,23.858474,38.523604,Eastern Mediteranean route Sea,Drowned,Other,Boat
1966,2002-12-18T23:00:00Z,2002,"reportedly drowned, when 2 vessels got gaught in a storm of the island Evia (GR) (Dec 18, 2002)",evia,MNS/AP,,United,,10,Greece,Greece,,23.858474,38.523604,Eastern Mediteranean route Sea,Drowned,Other,Boat
1076,2002-12-16T00:00:00Z,2002,"Young man found dead with head injuries. It was discovered by the driver of the truck where he was hiding to sail towards Italy (Dec 16, 2002)",Greece,Kathimerini,http://www.ekathimerini.com/4dcgi/news/content.asp?aid=24280,Del grande,558,1,,,Greece,21.824312,39.074208,,,,
445,2002-12-12T23:00:00Z,2002,"died of exhaustion after long trek, found near Greek village at GR-TR border (Dec 12, 2002). From Del Grande's data set (translated): Found dead on the border with Turkey, in Thrace, who died of cold in a night march to cross the border (Dec 13, 2002)",Thrace,NOB,http://www.ekathimerini.com/4dcgi/news/content.asp?aid=24192,United,556,1,Greece,Turkey,,26,42,Eastern Mediteranean route Land,,Other,"Walking, swimming"
1083,2002-11-30T00:00:00Z,2002,"2 bodies found on the coasts of the island Arkii, in the Aegean Sea (Nov 30, 2002)",aegean,Kathimerini,http://www.ekathimerini.com/4dcgi/news/content.asp?aid=23708,Del grande,551,2,,,Greece,25.520736,37.075546,Eastern Mediteranean route Sea,,,
1086,2002-11-07T00:00:00Z,2002,"Woman dies of cold in the arms of her husband, were crossing on foot at night the Turkish border with Greece (Nov 7, 2002)",Greece,Kathimerini,http://www.ekathimerini.com/4dcgi/news/content.asp?aid=22846,Del grande,548,1,,,Greece,21.824312,39.074208,,,,
749,2002-10-20T22:00:00Z,2002,"drowned, bodies found off the northeastern coast of Lesbos (GR) (Oct 20, 2002)",lesbos,MNS,,United,,2,Greece,Greece,,26.372171,39.16408,Eastern Mediteranean route Sea,Drowned,Trafficking,Boat
744,2002-10-15T22:00:00Z,2002,"drowned, bodies found near Lesbos (GR) all six where wearing life vests (Oct 15, 2002). From Del Grande's data set (translated): Recovered off the island of Lesbos corpses of drowned 6, including 3 children (Oct 16, 2002)",lesbos,MNS/NCAs,http://dea.ansa.it/,United,545,6,Greece,Greece,,26.372171,39.16408,Eastern Mediteranean route Sea,Drowned,Trafficking,Boat
954,2002-10-09T22:00:00Z,2002,"drowned, ship capsized off Turkey's western coast on its way to Greece (Oct 9, 2002)",Turkey to Greece,AFP,,United,,2,Greece,Turkey,,26.613007,38.652771,Eastern Mediteranean route Sea,Drowned,Other,Boat
1951,2002-10-09T22:00:00Z,2002,"reportedly drowned, ship capsized off Turkey's western coast on way to GR (Oct 9, 2002). From Del Grande's data set (translated): Live in Greece boat is shipwrecked off the coast of Didymus, 9 dead (Oct 10, 2002)","Didymus, Greece",AFP,http://dea.ansa.it/,United,542,7,Greece,Turkey,,,,,Drowned,Other,Boat
1072,2002-09-25T22:00:00Z,2002,"drowned, when fishing boat heading for Lesbos (GR) sank near Narli (TR) (Sep 25, 2002)",lesbos,HRFT/AFP,,United,,3,Greece,Turkey,,26.372171,39.16408,Eastern Mediteranean route Sea,Drowned,Other,Boat
1967,2002-09-25T22:00:00Z,2002,"reportedly drowned, when fishing boat heading for Lesbos (GR) sank near Narli (TR) (Sep 25, 2002). From Del Grande's data set (translated): Direct boat in Greece, the island of Lesbos, is shipwrecked off the coast of Ayvacik. 3 dead and 10 missing (Sep 28, 2002)",lesbos,HRFT/AFP,http://www.turkishdailynews.com.tr/archives.php?id=29519,United,540,10,Greece,Turkey,,26.372171,39.16408,Eastern Mediteranean route Sea,Drowned,Other,Boat
1567,2002-08-31T22:00:00Z,2002,"frozen to death trying to cross Turkish-Greek border illegally near Edirne (TR) (Aug 31, 2002)",edirne,HRFT,,United,,1,Greece,Turkey,,26.562269,41.681808,Eastern Mediteranean route Land,Frozen,Other,"Walking, swimming"
1635,2002-08-27T22:00:00Z,2002,"Kurd, died near village Vyssa (TR/GR border) after straying into marked minefield (Aug 27, 2002). From Del Grande's data set (translated): Minefield on the border with Turkey. An explosion kills a man trying to enter Greece. Since 1990, 64 deaths on mines (Aug 29, 2002)","Vyssa, Turkey",KI,http://www.ekathimerini.com/4dcgi/news/content.asp?aid=20273,United,531,1,Greece,Turkey,,26.490198,41.58738,Eastern Mediteranean route Land,Minefield,Other,Train
1113,2002-07-06T00:00:00Z,2002,"7 found dead in the sea, off the coast of Corfu and close to Athens (Jul 6, 2002)",athens,Kathimerini,http://www.ekathimerini.com/4dcgi/news/content.asp?aid=18400,Del grande,521,7,,,Greece,23.72931,37.983716,Eastern Mediteranean route Sea,,,
1118,2002-06-28T00:00:00Z,2002,"Sinking boat off the coast of Kos in the Dodecanese, 6 dead and 6 missing (Jun 28, 2002)",kos,Turkish Daily News,http://www.turkishdailynews.com.tr/archives.php?id=28553,Del grande,516,12,,,Greece,27.102943,36.799851,Eastern Mediteranean route Sea,,,
981,2002-06-26T22:00:00Z,2002,"drowned, the boat bringing them from Turkey to Kos (GR) sank near Datca (TR) (Jun 26, 2002)",kos,VK/MNS/HRFT/IRR,,United,,5,Greece,Turkey,,27.102943,36.799851,Eastern Mediteranean route Sea,Drowned,Other,Boat
1897,2002-06-26T22:00:00Z,2002,"reportedly drowned, boat from Turkey to Kos (GR) sank near Datca (TR) (Jun 26, 2002)",kos,VK/MNS/HRFT/IRR,,United,,6,Greece,Turkey,,27.102943,36.799851,Eastern Mediteranean route Sea,Drowned,Other,Boat
323,2002-06-23T22:00:00Z,2002,"died in a car accident after taxi driver tried to escape the border police (TR-GR)  (Jun 23, 2002)",Turkey to Greece,HRFT,,United,,1,Greece,Turkey,,26.613007,38.652771,Eastern Mediteranean route Sea,Car accident,Other,Motor vehicle
955,2002-04-16T22:00:00Z,2002,"drowned, ship carrying migrants turned over and sank north of Naxos (GR) (Apr 16, 2002). From Del Grande's data set (translated): 2 dead, 7 missing in a shipwreck off the island of Naxos in the Aegean Sea. The Greek Coast Guard, since 1992, has counted 13 wrecks, 30 dead and 78 missing (Apr 17, 2002)",naxos,AFP/IRR,http://query.nytimes.com/gst/fullpage.html?res=9C07E4D9153FF93AA25757C0A9649C8B63&n=Top%2fReference%2fTimes%20Topics%2fSubjects%2fI%2fImmigration%20and%20Refugees,United,498,3,Greece,Greece,,25.376114,37.102103,Eastern Mediteranean route Sea,Drowned,Trafficking,Boat
1730,2002-04-16T22:00:00Z,2002,"missing, ship carrying migrants turned over and sank north of Naxos (GR) (Apr 16, 2002)",naxos,AFP/IRR,,United,,25,Greece,Greece,,25.376114,37.102103,Eastern Mediteranean route Sea,,Trafficking,Boat
1555,2002-04-01T22:00:00Z,2002,"frozen, trying to cross the snow covered border between Bulgaria-Northern Greece (Apr 1, 2002)",bulgaria,MNS,,United,,1,Greece,Bulgaria,,25.48583,42.733883,Eastern Mediteranean route Land,Frozen,Other,"Walking, swimming"
389,2002-03-26T23:00:00Z,2002,"died in minefield near river Evros (GR) trying to cross the Turkish-Greek border (Mar 26, 2002). From Del Grande's data set (translated): Minefield in Evros, greek-turkish border. An explosion 2 dead and 1 seriously injured. They tried to enter illegally in Greece (Mar 21, 2002)",evros,AFP/MNS/AP,http://www.ekathimerini.com/4dcgi/news/content.asp?aid=14612,United,492,1,Greece,Turkey,,26.135943,41.244376,Eastern Mediteranean route Land,Minefield,Self organised,"Walking, swimming"
388,2002-03-19T23:00:00Z,2002,"died in minefield near river Evros (GR) trying to cross the Turkish-Greek border (Mar 19, 2002). From Del Grande's data set (translated): Minefield in Evros, greek-turkish border. An explosion 2 dead and 1 seriously injured. They tried to enter illegally in Greece (Mar 21, 2002)",evros,MNS/Vivre/HRFT/AP,http://www.ekathimerini.com/4dcgi/news/content.asp?aid=14612,United,492,2,Greece,Turkey,,26.135943,41.244376,Eastern Mediteranean route Land,Minefield,Self organised,"Walking, swimming"
1435,2002-02-10T23:00:00Z,2002,"fatally injured by border guard in Messopotamia area of Kastoria (GR-AL border) (Feb 10, 2002)",kastoria,GHM/OMCT/YaN/ProAsyl,,United,,1,Greece,Albania,,21.268717,40.519269,,,Other,"Walking, swimming"
1151,2002-02-04T00:00:00Z,2002,"A frozen to death along the snowy passes of the border between Bulgaria and Greece (Feb 4, 2002)",bulgaria,Migration News Sheet,http://www.migpolgroup.com/topics/2054.html,Del grande,483,1,,,Greece,25.48583,42.733883,Eastern Mediteranean route Land,,,
1114,2002-01-11T23:00:00Z,2002,"drowned after boat sank on the way from Bodrum (TR) to Kos (GR) (Jan 11, 2002)",kos,IRR/TL/Vita,,United,,44,Greece,Turkey,,27.102943,36.799851,Eastern Mediteranean route Sea,Drowned,Other,Boat
462,2002-01-10T23:00:00Z,2002,"died of hypothermia,  after long treck across Turkish border into Greece. (Jan 10, 2002)",Turkey to Greece,IRR,,United,,1,Greece,Turkey,,26.613007,38.652771,Eastern Mediteranean route Sea,Frozen,Self organised,"Walking, swimming"
802,2002-01-09T23:00:00Z,2002,"drowned, body was discovered by a fisherman in the western Peloponnese (GR) (Jan 9, 2002)","Peloponnese, greece",IRR,,United,,1,Greece,Greece,,22.352222,37.349722,Eastern Mediteranean route Sea,Drowned,Other,Boat
1066,2002-01-08T23:00:00Z,2002,"drowned, was abandoned near Greek coast in a boat that later capsized  (Jan 8, 2002)",Turkey to Greece,IRR,,United,,1,Greece,Turkey,,26.613007,38.652771,Eastern Mediteranean route Sea,Drowned,Trafficking,Boat
1068,2002-01-08T23:00:00Z,2002,"drowned, were abandoned near Greek coast in boat that later capsized  (Jan 8, 2002)",Turkey to Greece,IRR,,United,,2,Greece,Turkey,,26.613007,38.652771,Eastern Mediteranean route Sea,Drowned,Trafficking,Boat
1735,2002-01-08T23:00:00Z,2002,"missing, were abandoned near Greek coast in a boat that later capsized  (Jan 8, 2002)",Turkey to Greece,IRR/MUGAK,,United,,5,Greece,Turkey,,26.613007,38.652771,Eastern Mediteranean route Sea,,Trafficking,Boat
1603,2002-01-04T23:00:00Z,2002,"jumped off a ship in the Corinthian Gulf (GR) died several hours later in a hospital (Jan 4, 2002)","Corinthia, greece",IRR,,United,,1,Greece,Greece,,22.524509,38.002298,Eastern Mediteranean route Sea,Drowned,Other,Boat
2055,2002-01-04T23:00:00Z,2002,"reported missing after he jumped off a ship in the Corinthian Gulf (GR) (Jan 4, 2002)","Corinthia, greece",IRR,,United,,1,Greece,Greece,,22.524509,38.002298,Eastern Mediteranean route Sea,Drowned,Other,Boat
386,2001-12-22T23:00:00Z,2001,"died in minefield in Northern Greece trying to cross the Turkish-Greek border (Dec 22, 2001). From Del Grande's data set (translated): Found the remains of a man killed by an explosion in the mine fields between Gemisti and Gefyra, at the border between Turkey and Greece (Sep 29, 2001)",gemisti,MNS/AP,http://www.icbl.org/lm/2002/greece,United,453,4,Greece,Turkey,,26.330751,40.962655,,Minefield,Self organised,"Walking, swimming"
1168,2001-12-03T00:00:00Z,2001,"Boat rescued off Cesvos, 2 dead, 4 missing (Dec 3, 2001)","Cesvos, greece",Kathimerini,http://www.ekathimerini.com/4dcgi/news/content.asp?aid=8791,Del grande,466,6,,,Greece,26.372171,39.16408,Eastern Mediteranean route Sea,,,
1172,2001-11-06T00:00:00Z,2001,"Capsizes off the coast of the Turkish boat heading to Greece, 5 dead (Nov 6, 2001)",Greece,Reuters,http://www.lemonde.fr/web/recherche_breve/1,Del grande,462,5,,,Greece,21.824312,39.074208,,,,
1175,2001-10-26T00:00:00Z,2001,"Dinghy is shipwrecked off the coast of Kos, 1 dead (Oct 26, 2001)",kos,Kathimerini,http://www.ekathimerini.com/4dcgi/news/content.asp?aid=10475,Del grande,459,1,,,Greece,27.102943,36.799851,Eastern Mediteranean route Sea,,,
387,2001-09-29T22:00:00Z,2001,"died in minefield in Northern Greece trying to cross the Turkish-Greek border (Sep 29, 2001). From Del Grande's data set (translated): Found the remains of a man killed by an explosion in the mine fields between Gemisti and Gefyra, at the border between Turkey and Greece (Sep 29, 2001)",gemisti,MNS,http://www.icbl.org/lm/2002/greece,United,453,1,Greece,Turkey,,26.330751,40.962655,,Minefield,Self organised,"Walking, swimming"
1189,2001-09-05T00:00:00Z,2001,"5 drowned during the landing of a ship of migrants on the island of Evia (Sep 5, 2001)",evia,Macedonian Press Agency,http://www.hri.org/news/greek/mpab/2001/01-09-05.mpab.html#01,Del grande,445,5,,,Greece,23.858474,38.523604,Eastern Mediteranean route Sea,,,
1075,2001-07-10T22:00:00Z,2001,"drowned, when vessel capsized near Bodrum at South-West cost of Turkey (Jul 10, 2001)",Bodrum,MNS/VK/AFP,,United,,12,Greece,Turkey,,27.43029,37.035339,Eastern Mediteranean route Sea,Drowned,Trafficking,Boat
1313,2001-07-10T22:00:00Z,2001,"drowned near Bodrum in Turkey when smugglers boat capsized   (Jul 10, 2001)",Bodrum,VK,,United,,1,Greece,Turkey,,27.43029,37.035339,Eastern Mediteranean route Sea,Drowned,Trafficking,Boat
1209,2001-07-05T00:00:00Z,2001,"A frozen to death on the border crossings between Bulgaria and Greece (Jul 5, 2001)",bulgaria,Migration News Sheet,http://www.migpolgroup.com/topics/2054.html,Del grande,425,1,,,Greece,25.48583,42.733883,Eastern Mediteranean route Land,,,
1213,2001-06-15T00:00:00Z,2001,"A boat hits a rocky islet of Chtapodia, in the Cyclades, and sinks, 6 drowned (Jun 15, 2001)","Chtapodia, greece",Ansa,http://dea.ansa.it/,Del grande,421,6,,,Greece,25.568889,37.411111,Eastern Mediteranean route Sea,,,
1410,2001-06-13T22:00:00Z,2001,"drowned when vessel hit a rocky islet near Mykonos (GR) and sank (Jun 13, 2001)",mykonos,MNS,,United,,6,Greece,Greece,,25.328862,37.446719,Eastern Mediteranean route Sea,Drowned,Self organised,Boat
1968,2001-06-13T22:00:00Z,2001,"reportedly drowned, when vessel hit a rocky islet near Mykonos (GR) and sank (Jun 13, 2001)",mykonos,MNS,,United,,4,Greece,Greece,,25.328862,37.446719,Eastern Mediteranean route Sea,Drowned,Self organised,Boat
687,2001-06-10T22:00:00Z,2001,"drowned, after vessel capsized near the South-West coast of Turkey (Jun 10, 2001)",Turkey to Greece,MNS/DPA,,United,,5,Greece,Turkey,,26.613007,38.652771,Eastern Mediteranean route Sea,Drowned,Trafficking,Boat
377,2001-05-21T22:00:00Z,2001,"died in marked minefield, crossed into Greece from Turkey via Evros river (May 21, 2001). From Del Grande's data set (translated): After the victims of the previous day, the remains of two other victims of landmines are found in the fields of Evros (May 22, 2001)",evros,Athens News Agency,http://www.icbl.org/lm/2002/greece,United,413,2,Greece,Turkey,,26.135943,41.244376,Eastern Mediteranean route Land,Minefield,Other,"Walking, swimming"
384,2001-05-20T22:00:00Z,2001,"died in minefield in Greece trying to cross the Turkish-Greek border (May 20, 2001). From Del Grande's data set (translated): 3 dead and one seriously injured in a minefield greek-Turkish border Evros (May 21, 2001)",evros,DPA/Athens News Agency,http://www.turkishdailynews.com.tr/archives.php?id=23415,United,412,3,Greece,Turkey,,26.135943,41.244376,Eastern Mediteranean route Land,Minefield,Self organised,"Walking, swimming"
1294,2001-05-08T22:00:00Z,2001,"drowned in the attempt to swim to the beach of the Greek island of Evia (May 8, 2001)",evia,DPA,,United,,5,Greece,Greece,,23.858474,38.523604,Eastern Mediteranean route Sea,Drowned,Other,"Walking, swimming"
1554,2001-05-06T22:00:00Z,2001,"frozen, trying to cross the snow covered border between Bulgaria and Northern Greece (May 6, 2001)",bulgaria,MNS,,United,,1,Greece,Bulgaria,,25.48583,42.733883,Eastern Mediteranean route Land,Frozen,Self organised,"Walking, swimming"
1561,2001-04-16T22:00:00Z,2001,"frozen to death at Belles mountain (BG/GR) trying to walk to Greece (Apr 16, 2001). From Del Grande's data set (translated): 4 dead, frozen to death on the passes of the mountains of Belasicas, trying to walk across the border between Bulgaria and Greece. According to authorities, 30 migrants have died since 1994 in these mountains (Apr 17, 2001)",bulgaria,MNS,http://www.hambastegi.org/internationalnews/news043001.htm,United,407,4,Greece,Bulgaria,,25.48583,42.733883,Eastern Mediteranean route Land,Frozen,Other,"Walking, swimming"
1433,2001-03-28T22:00:00Z,2001,"expelled Turk, died in minefield at GR/TR border returning to Germany after torture (Mar 28, 2001)",Turkey to Greece,ProAsyl,,United,,1,Greece,Turkey,,26.613007,38.652771,Eastern Mediteranean route Sea,Minefield,Self organised,"Walking, swimming"
2112,2001-03-28T22:00:00Z,2001,"skeleton found in minefield between Greek-Turkish border (Mar 28, 2001)",Turkey to Greece,ProAsyl,,United,,1,Greece,Turkey,,26.613007,38.652771,Eastern Mediteranean route Sea,Minefield,Self organised,"Walking, swimming"
1381,2001-01-11T23:00:00Z,2001,"drowned trying to reach Greece from Turkey with a dinghy (Jan 11, 2001)",Turkey to Greece,AFP,,United,,2,Greece,Turkey,,26.613007,38.652771,Eastern Mediteranean route Sea,Drowned,Self organised,Boat
1962,2001-01-11T23:00:00Z,2001,"reportedly drowned, trying to reach Greece from Turkey with a dinghy (Jan 11, 2001)",Turkey to Greece,AFP,,United,,4,Greece,Turkey,,26.613007,38.652771,Eastern Mediteranean route Sea,Drowned,Self organised,Boat
294,2001-01-08T23:00:00Z,2001,"died during boat trip on old defective vessel from Turkey to Greece (Jan 8, 2001)",Turkey to Greece,DPA,,United,,5,Greece,Turkey,,26.613007,38.652771,Eastern Mediteranean route Sea,,Other,Boat
844,2001-01-06T23:00:00Z,2001,"drowned, forced to cross back over a river towards Greece by Turkish soldiers (Jan 6, 2001)",Turkey to Greece,MNS,,United,,3,Greece,Turkey,,26.613007,38.652771,Eastern Mediteranean route Sea,Drowned,Other,"Walking, swimming"
1841,2001-01-06T23:00:00Z,2001,"reportedly dead, forced to walk back and forth between the Turkish/Greek borders (Jan 6, 2001)",Turkey to Greece,MNS,,United,,15,Greece,Turkey,,26.613007,38.652771,Eastern Mediteranean route Sea,,Self organised,"Walking, swimming"
1229,2000-12-31T23:00:00Z,2000,"drowned in Aegean sea on his way from Turkey to the Greek island Lesbos (GR) (Dec 31, 2000)",lesbos,Den Blanken,,United,,1,Greece,Turkey,,26.372171,39.16408,Eastern Mediteranean route Sea,Drowned,Other,Boat
1230,2000-12-31T23:00:00Z,2000,"drowned in Aegean sea on their way from Turkey to the Greek island Lesbos (GR) (Dec 31, 2000)",lesbos,Den Blanken,,United,,5,Greece,Turkey,,26.372171,39.16408,Eastern Mediteranean route Sea,Drowned,Other,Boat
2286,2000-12-31T23:00:00Z,2000,"stowaways, drowned when ship sunk in stormy waters near Antalya (TR) (Dec 31, 2000)",antalya,La Opini√õn,,United,,6,Greece,Turkey,,30.70563,36.88414,Eastern Mediteranean route Sea,Drowned,Trafficking,Stowaway
2304,2000-12-31T23:00:00Z,2000,"stowaways, reportedly drowned when freighter sunk in stormy sea near Antalya (TR) (Dec 31, 2000). From Del Grande's data set (translated): Live in Greece, sinking a few miles from Kemer Georgian cargo ship Pati; 9 bodies recovered, at least 50 missing (Jan 1, 2001)",antalya,DPA/Reu/MNS/Morgengr./MN/NW/LaOpini√õn,http://archives.cnn.com/2001/WORLD/europe/01/03/ship.turkey/,United,389,25,Greece,Turkey,,30.70563,36.88414,Eastern Mediteranean route Sea,Drowned,Trafficking,Stowaway
1570,2000-12-30T23:00:00Z,2000,"froze to death at Belles mountain (GR/BG) trying to reach Greece illegally (Dec 30, 2000). From Del Grande's data set (translated): Trying to enter illegally in Greece, a girl dies frozen to death on foot through the passes of the mountains Belles, the Bulgarian border (Dec 31, 2000)",bulgaria,MNS,http://www.migpolgroup.com/topics/2054.html,United,388,1,Greece,Bulgaria,,25.48583,42.733883,Eastern Mediteranean route Land,Frozen,Other,Other
158,2000-12-20T23:00:00Z,2000,"burned alive in car crash near Thessaloniki (GR) trying to enter Greece illegally (Dec 20, 2000). From Del Grande's data set (translated): Two men dead in the charred closed hood of a car in which they were hidden and who has had a car accident on fire, near Thessaloniki along the Macedonian border (Dec 21, 2000)",thessaloniki,MNS,http://dea.ansa.it/,United,382,2,Greece,Albania,,22.944606,40.63935,Eastern Mediteranean route Sea,Car accident,Trafficking,Motor vehicle
288,2000-12-04T23:00:00Z,2000,"died by jumping into 300 metre deep gorge trying to flee border police in Greece (Dec 4, 2000)",Albania to Greece,MNS,,United,,1,Greece,Albania,,20.786133,40.261643,Circular route from Greece and Albania,,Self organised,"Walking, swimming"
1271,2000-11-01T00:00:00Z,2000,"Man killed by Greek police in Kastoria, the border between Greece and Albania. A driving a car loaded with illegal immigrants, had not stopped at the checkpoint (Nov 1, 2000)",kastoria,Amnesty,http://web.amnesty.org/library/index/engeur250222002,Del grande,363,1,,,Greece,21.268717,40.519269,,,,
408,2000-10-21T22:00:00Z,2000,"died in van accident near Thessalonoki (GR) (Oct 21, 2000)","Thessalonoki, Greece",MNS,,United,,3,,,Greece,22.944606,40.63935,Eastern Mediteranean route Sea,Car accident,,
1287,2000-09-01T00:00:00Z,2000,"2 killed in minefields along the Evros River at the border with Turkey, Kipi. Attempting to cross the border on foot (Sep 1, 2000)",evros,Macedonian Press Agency,http://www.hri.org/cgi-bin/brief?/news/greek/mpab/2000/00-09-01.mpab.html#09,Del grande,347,2,,,Greece,26.135943,41.244376,Eastern Mediteranean route Land,,,
1632,2000-08-28T22:00:00Z,2000,"killed in minefield on Greek-Turkish border trying to cross illegally (Aug 28, 2000). From Del Grande's data set (translated): An explosion in a minefield along the border turkish near Kipoi ago 1 dead. Death on the mines of the north-eastern border 7 people in 1999 (Aug 29, 2000)",kipoi,MNS,http://dea.ansa.it/,United,346,1,Greece,Turkey,,20.792365,39.864207,Circular route from Greece and Albania,Minefield,Self organised,"Walking, swimming"
1325,2000-08-25T22:00:00Z,2000,"drowned near Kos (GR), when small boat capsized (Aug 25, 2000). From Del Grande's data set (translated): It overturns a boat in the waters of the island of Kos, 8 dead, 16 missing in sea (Aug 27, 2000)",kos,AFP/AP/BBC,http://news.bbc.co.uk/2/hi/europe/897937.stm,United,343,8,Greece,Turkey,,27.102943,36.799851,Eastern Mediteranean route Sea,Drowned,Trafficking,Boat
1724,2000-08-25T22:00:00Z,2000,"missing, reportedly drowned near Kos (GR), after small boat capsized (Aug 25, 2000)",kos,AFP/AP/BBC,,United,,16,Greece,Turkey,,27.102943,36.799851,Eastern Mediteranean route Sea,Drowned,Trafficking,Boat
409,2000-06-30T22:00:00Z,2000,"died in van accident trying to reach Thessaloniki (GR) from Turkey (Jun 30, 2000)",thessaloniki,MNS,,United,,6,Greece,Turkey,,22.944606,40.63935,Eastern Mediteranean route Sea,Car accident,Trafficking,Motor vehicle
1317,2000-05-08T00:00:00Z,2000,"A dead man in a minefield along the Evros River, the border between Turkey and Greece, while crossing the border on foot (May 8, 2000)",evros,Athen News,http://www.icbl.org/lm/2000/greece#fnB3641,Del grande,317,1,,,Greece,26.135943,41.244376,Eastern Mediteranean route Land,,,
1475,2000-04-22T22:00:00Z,2000,"found dead floating in Evros river (GR/TR) reportedly trying to cross border  (Apr 22, 2000). From Del Grande's data set (translated): Recovered in the waters of the Evros River at the border between Turkey and Greece, the body of a drowned man (Apr 23, 2000)",evros,MNS,http://www.migpolgroup.com/topics/2054.html,United,308,1,Greece,Turkey,,26.135943,41.244376,Eastern Mediteranean route Land,Drowned,Other,"Walking, swimming"
1665,2000-03-24T23:00:00Z,2000,"Kurds, drowned near the island of Kos (GR) reportedly after vessel capsized (Mar 24, 2000). From Del Grande's data set (translated): Boat capsizes in the waters of Kos, 8 dead, including 3 children (Mar 25, 2000)",kos,MNS/taz,http://www.hri.org/news/greek/apeen/2000/00-03-25.apeen.html#05,United,299,9,Greece,Turkey,,27.102943,36.799851,Eastern Mediteranean route Sea,Drowned,Trafficking,Boat
1573,2000-01-13T23:00:00Z,2000,"froze to death in the Belles mountains (BG/GR) trying to enter Greece (Jan 13, 2000). From Del Grande's data set (translated): 20 young women crossing the border on foot along the Bulgarian mountain Belles, but can not find who had to wait for them, in three days of waiting froze to death two women (Jan 17, 2000)",bulgaria,MNS,http://dea.ansa.it/,United,291,2,Greece,Belarus,,25.48583,42.733883,Eastern Mediteranean route Land,Frozen,Self organised,"Walking, swimming"
1436,2000-01-10T23:00:00Z,2000,"fatally injured by border guard in Messopotamia area of Kastoria (GR-AL border) (Jan 10, 2000)",kastoria,GHM/OMCT,,United,,1,Greece,Albania,,21.268717,40.519269,,,Other,Other
1672,2000-01-10T23:00:00Z,2000,"leader of a group of refugees in border town Florina shot dead by Greek police (Jan 10, 2000)",florina,MNS,,United,,1,,,Greece,21.413122,40.784526,,,,
1631,2000-01-08T23:00:00Z,2000,"killed in minefield on Greek-Turkish border trying to cross illegally (Jan 8, 2000). From Del Grande's data set (translated): An explosion in a minefield along the border turkish near Kipoi ago 1 dead. Death on the mines of the north-eastern border 7 people in 1999 (Aug 29, 2000)",kipoi,MNS,http://dea.ansa.it/,United,346,2,Greece,Turkey,,20.792365,39.864207,Circular route from Greece and Albania,Minefield,Other,"Walking, swimming"
1346,2000-01-07T00:00:00Z,2000,"Flips a truck they were traveling hidden 80 people, Komotini near the border with Turkey, 6 dead and 30 injured (Jan 7, 2000)",komotini,Ansa,http://dea.ansa.it/,Del grande,288,6,,,Greece,25.406558,41.122439,Eastern Mediteranean route Land,,,
385,2000-01-04T23:00:00Z,2000,"died in minefield in Nea Vissa region (GR) near Turkish border (Jan 4, 2000)",vissa,MNS,,United,,1,Greece,Turkey,,21.506965,48.217686,Eastern Land borders route,Minefield,Other,"Walking, swimming"
